<?xml version="1.0" encoding="UTF-8"?>
<svg xmlns="http://www.w3.org/2000/svg" xmlns:xlink="http://www.w3.org/1999/xlink" width="1326pt" height="863pt" viewBox="0 0 1326 863" version="1.1">
<defs>
<g>
<symbol overflow="visible" id="glyph0-0">
<path style="stroke:none;" d="M 2.5625 -8.421875 L 2.5625 -4.859375 L 4.171875 -4.859375 C 4.765625 -4.859375 5.222656 -5.015625 5.546875 -5.328125 C 5.878906 -5.640625 6.046875 -6.078125 6.046875 -6.640625 C 6.046875 -7.210938 5.878906 -7.648438 5.546875 -7.953125 C 5.222656 -8.265625 4.765625 -8.421875 4.171875 -8.421875 Z M 1.28125 -9.484375 L 4.171875 -9.484375 C 5.234375 -9.484375 6.035156 -9.238281 6.578125 -8.75 C 7.117188 -8.269531 7.390625 -7.566406 7.390625 -6.640625 C 7.390625 -5.710938 7.117188 -5.007812 6.578125 -4.53125 C 6.035156 -4.050781 5.234375 -3.8125 4.171875 -3.8125 L 2.5625 -3.8125 L 2.5625 0 L 1.28125 0 Z M 1.28125 -9.484375 "/>
</symbol>
<symbol overflow="visible" id="glyph0-1">
<path style="stroke:none;" d="M 7.140625 -4.296875 L 7.140625 0 L 5.96875 0 L 5.96875 -4.25 C 5.96875 -4.925781 5.835938 -5.429688 5.578125 -5.765625 C 5.316406 -6.097656 4.921875 -6.265625 4.390625 -6.265625 C 3.765625 -6.265625 3.269531 -6.0625 2.90625 -5.65625 C 2.539062 -5.257812 2.359375 -4.710938 2.359375 -4.015625 L 2.359375 0 L 1.1875 0 L 1.1875 -9.875 L 2.359375 -9.875 L 2.359375 -6 C 2.640625 -6.425781 2.96875 -6.742188 3.34375 -6.953125 C 3.71875 -7.171875 4.15625 -7.28125 4.65625 -7.28125 C 5.46875 -7.28125 6.082031 -7.023438 6.5 -6.515625 C 6.925781 -6.015625 7.140625 -5.273438 7.140625 -4.296875 Z M 7.140625 -4.296875 "/>
</symbol>
<symbol overflow="visible" id="glyph0-2">
<path style="stroke:none;" d="M 4.1875 0.65625 C 3.851562 1.507812 3.53125 2.0625 3.21875 2.3125 C 2.90625 2.570312 2.488281 2.703125 1.96875 2.703125 L 1.03125 2.703125 L 1.03125 1.734375 L 1.71875 1.734375 C 2.039062 1.734375 2.289062 1.65625 2.46875 1.5 C 2.644531 1.34375 2.835938 0.984375 3.046875 0.421875 L 3.265625 -0.109375 L 0.390625 -7.109375 L 1.625 -7.109375 L 3.84375 -1.546875 L 6.0625 -7.109375 L 7.3125 -7.109375 Z M 4.1875 0.65625 "/>
</symbol>
<symbol overflow="visible" id="glyph0-3">
<path style="stroke:none;" d="M 5.75 -6.90625 L 5.75 -5.796875 C 5.425781 -5.960938 5.085938 -6.085938 4.734375 -6.171875 C 4.378906 -6.253906 4.007812 -6.296875 3.625 -6.296875 C 3.039062 -6.296875 2.601562 -6.207031 2.3125 -6.03125 C 2.03125 -5.851562 1.890625 -5.585938 1.890625 -5.234375 C 1.890625 -4.960938 1.988281 -4.75 2.1875 -4.59375 C 2.394531 -4.445312 2.816406 -4.300781 3.453125 -4.15625 L 3.84375 -4.0625 C 4.675781 -3.882812 5.265625 -3.632812 5.609375 -3.3125 C 5.960938 -2.988281 6.140625 -2.539062 6.140625 -1.96875 C 6.140625 -1.300781 5.878906 -0.773438 5.359375 -0.390625 C 4.835938 -0.00390625 4.117188 0.1875 3.203125 0.1875 C 2.816406 0.1875 2.414062 0.148438 2 0.078125 C 1.59375 0.00390625 1.160156 -0.109375 0.703125 -0.265625 L 0.703125 -1.46875 C 1.140625 -1.238281 1.566406 -1.066406 1.984375 -0.953125 C 2.398438 -0.847656 2.8125 -0.796875 3.21875 -0.796875 C 3.769531 -0.796875 4.191406 -0.890625 4.484375 -1.078125 C 4.785156 -1.265625 4.9375 -1.53125 4.9375 -1.875 C 4.9375 -2.1875 4.828125 -2.425781 4.609375 -2.59375 C 4.398438 -2.769531 3.9375 -2.9375 3.21875 -3.09375 L 2.8125 -3.1875 C 2.082031 -3.34375 1.554688 -3.578125 1.234375 -3.890625 C 0.910156 -4.203125 0.75 -4.632812 0.75 -5.1875 C 0.75 -5.851562 0.984375 -6.367188 1.453125 -6.734375 C 1.929688 -7.097656 2.609375 -7.28125 3.484375 -7.28125 C 3.910156 -7.28125 4.316406 -7.25 4.703125 -7.1875 C 5.085938 -7.125 5.4375 -7.03125 5.75 -6.90625 Z M 5.75 -6.90625 "/>
</symbol>
<symbol overflow="visible" id="glyph0-4">
<path style="stroke:none;" d="M 1.21875 -7.109375 L 2.390625 -7.109375 L 2.390625 0 L 1.21875 0 Z M 1.21875 -9.875 L 2.390625 -9.875 L 2.390625 -8.390625 L 1.21875 -8.390625 Z M 1.21875 -9.875 "/>
</symbol>
<symbol overflow="visible" id="glyph0-5">
<path style="stroke:none;" d="M 6.34375 -6.84375 L 6.34375 -5.75 C 6.007812 -5.925781 5.675781 -6.0625 5.34375 -6.15625 C 5.007812 -6.25 4.675781 -6.296875 4.34375 -6.296875 C 3.582031 -6.296875 2.992188 -6.050781 2.578125 -5.5625 C 2.160156 -5.082031 1.953125 -4.410156 1.953125 -3.546875 C 1.953125 -2.679688 2.160156 -2.007812 2.578125 -1.53125 C 2.992188 -1.050781 3.582031 -0.8125 4.34375 -0.8125 C 4.675781 -0.8125 5.007812 -0.851562 5.34375 -0.9375 C 5.675781 -1.03125 6.007812 -1.171875 6.34375 -1.359375 L 6.34375 -0.265625 C 6.019531 -0.117188 5.679688 -0.0078125 5.328125 0.0625 C 4.984375 0.144531 4.613281 0.1875 4.21875 0.1875 C 3.144531 0.1875 2.289062 -0.144531 1.65625 -0.8125 C 1.03125 -1.488281 0.71875 -2.398438 0.71875 -3.546875 C 0.71875 -4.703125 1.035156 -5.613281 1.671875 -6.28125 C 2.304688 -6.945312 3.179688 -7.28125 4.296875 -7.28125 C 4.648438 -7.28125 5 -7.242188 5.34375 -7.171875 C 5.6875 -7.097656 6.019531 -6.988281 6.34375 -6.84375 Z M 6.34375 -6.84375 "/>
</symbol>
<symbol overflow="visible" id="glyph0-6">
<path style="stroke:none;" d="M 4.453125 -3.578125 C 3.515625 -3.578125 2.863281 -3.46875 2.5 -3.25 C 2.132812 -3.03125 1.953125 -2.660156 1.953125 -2.140625 C 1.953125 -1.734375 2.085938 -1.40625 2.359375 -1.15625 C 2.628906 -0.914062 3 -0.796875 3.46875 -0.796875 C 4.113281 -0.796875 4.632812 -1.023438 5.03125 -1.484375 C 5.425781 -1.941406 5.625 -2.550781 5.625 -3.3125 L 5.625 -3.578125 Z M 6.78125 -4.0625 L 6.78125 0 L 5.625 0 L 5.625 -1.078125 C 5.351562 -0.648438 5.019531 -0.332031 4.625 -0.125 C 4.226562 0.0820312 3.738281 0.1875 3.15625 0.1875 C 2.425781 0.1875 1.847656 -0.015625 1.421875 -0.421875 C 0.992188 -0.835938 0.78125 -1.382812 0.78125 -2.0625 C 0.78125 -2.863281 1.046875 -3.46875 1.578125 -3.875 C 2.117188 -4.28125 2.921875 -4.484375 3.984375 -4.484375 L 5.625 -4.484375 L 5.625 -4.609375 C 5.625 -5.140625 5.445312 -5.550781 5.09375 -5.84375 C 4.738281 -6.144531 4.238281 -6.296875 3.59375 -6.296875 C 3.1875 -6.296875 2.789062 -6.242188 2.40625 -6.140625 C 2.019531 -6.046875 1.648438 -5.898438 1.296875 -5.703125 L 1.296875 -6.78125 C 1.722656 -6.945312 2.140625 -7.070312 2.546875 -7.15625 C 2.953125 -7.238281 3.34375 -7.28125 3.71875 -7.28125 C 4.75 -7.28125 5.515625 -7.015625 6.015625 -6.484375 C 6.523438 -5.953125 6.78125 -5.144531 6.78125 -4.0625 Z M 6.78125 -4.0625 "/>
</symbol>
<symbol overflow="visible" id="glyph0-7">
<path style="stroke:none;" d="M 1.21875 -9.875 L 2.390625 -9.875 L 2.390625 0 L 1.21875 0 Z M 1.21875 -9.875 "/>
</symbol>
<symbol overflow="visible" id="glyph0-8">
<path style="stroke:none;" d="M 2.5625 -4.53125 L 2.5625 -1.046875 L 4.609375 -1.046875 C 5.304688 -1.046875 5.816406 -1.1875 6.140625 -1.46875 C 6.472656 -1.757812 6.640625 -2.203125 6.640625 -2.796875 C 6.640625 -3.390625 6.472656 -3.828125 6.140625 -4.109375 C 5.816406 -4.390625 5.304688 -4.53125 4.609375 -4.53125 Z M 2.5625 -8.421875 L 2.5625 -5.5625 L 4.453125 -5.5625 C 5.078125 -5.5625 5.539062 -5.675781 5.84375 -5.90625 C 6.15625 -6.144531 6.3125 -6.507812 6.3125 -7 C 6.3125 -7.476562 6.15625 -7.832031 5.84375 -8.0625 C 5.539062 -8.300781 5.078125 -8.421875 4.453125 -8.421875 Z M 1.28125 -9.484375 L 4.546875 -9.484375 C 5.523438 -9.484375 6.28125 -9.28125 6.8125 -8.875 C 7.34375 -8.46875 7.609375 -7.890625 7.609375 -7.140625 C 7.609375 -6.554688 7.472656 -6.09375 7.203125 -5.75 C 6.929688 -5.40625 6.53125 -5.191406 6 -5.109375 C 6.632812 -4.972656 7.125 -4.691406 7.46875 -4.265625 C 7.820312 -3.835938 8 -3.300781 8 -2.65625 C 8 -1.8125 7.707031 -1.15625 7.125 -0.6875 C 6.550781 -0.226562 5.734375 0 4.671875 0 L 1.28125 0 Z M 1.28125 -9.484375 "/>
</symbol>
<symbol overflow="visible" id="glyph0-9">
<path style="stroke:none;" d="M 1.1875 -9.875 L 2.359375 -9.875 L 2.359375 -4.046875 L 5.84375 -7.109375 L 7.328125 -7.109375 L 3.5625 -3.78125 L 7.484375 0 L 5.96875 0 L 2.359375 -3.46875 L 2.359375 0 L 1.1875 0 Z M 1.1875 -9.875 "/>
</symbol>
<symbol overflow="visible" id="glyph0-10">
<path style="stroke:none;" d="M 2.359375 -1.0625 L 2.359375 2.703125 L 1.1875 2.703125 L 1.1875 -7.109375 L 2.359375 -7.109375 L 2.359375 -6.03125 C 2.597656 -6.457031 2.90625 -6.769531 3.28125 -6.96875 C 3.65625 -7.175781 4.101562 -7.28125 4.625 -7.28125 C 5.488281 -7.28125 6.191406 -6.9375 6.734375 -6.25 C 7.273438 -5.5625 7.546875 -4.660156 7.546875 -3.546875 C 7.546875 -2.429688 7.273438 -1.53125 6.734375 -0.84375 C 6.191406 -0.15625 5.488281 0.1875 4.625 0.1875 C 4.101562 0.1875 3.65625 0.0820312 3.28125 -0.125 C 2.90625 -0.332031 2.597656 -0.644531 2.359375 -1.0625 Z M 6.328125 -3.546875 C 6.328125 -4.410156 6.148438 -5.082031 5.796875 -5.5625 C 5.441406 -6.050781 4.957031 -6.296875 4.34375 -6.296875 C 3.726562 -6.296875 3.242188 -6.050781 2.890625 -5.5625 C 2.535156 -5.082031 2.359375 -4.410156 2.359375 -3.546875 C 2.359375 -2.691406 2.535156 -2.019531 2.890625 -1.53125 C 3.242188 -1.039062 3.726562 -0.796875 4.34375 -0.796875 C 4.957031 -0.796875 5.441406 -1.039062 5.796875 -1.53125 C 6.148438 -2.019531 6.328125 -2.691406 6.328125 -3.546875 Z M 6.328125 -3.546875 "/>
</symbol>
<symbol overflow="visible" id="glyph0-11">
<path style="stroke:none;" d="M 7.140625 -4.296875 L 7.140625 0 L 5.96875 0 L 5.96875 -4.25 C 5.96875 -4.925781 5.835938 -5.429688 5.578125 -5.765625 C 5.316406 -6.097656 4.921875 -6.265625 4.390625 -6.265625 C 3.765625 -6.265625 3.269531 -6.0625 2.90625 -5.65625 C 2.539062 -5.257812 2.359375 -4.710938 2.359375 -4.015625 L 2.359375 0 L 1.1875 0 L 1.1875 -7.109375 L 2.359375 -7.109375 L 2.359375 -6 C 2.640625 -6.425781 2.96875 -6.742188 3.34375 -6.953125 C 3.71875 -7.171875 4.15625 -7.28125 4.65625 -7.28125 C 5.46875 -7.28125 6.082031 -7.023438 6.5 -6.515625 C 6.925781 -6.015625 7.140625 -5.273438 7.140625 -4.296875 Z M 7.140625 -4.296875 "/>
</symbol>
<symbol overflow="visible" id="glyph0-12">
<path style="stroke:none;" d="M 7.3125 -3.84375 L 7.3125 -3.28125 L 1.9375 -3.28125 C 1.988281 -2.46875 2.226562 -1.851562 2.65625 -1.4375 C 3.09375 -1.019531 3.695312 -0.8125 4.46875 -0.8125 C 4.914062 -0.8125 5.347656 -0.863281 5.765625 -0.96875 C 6.191406 -1.082031 6.613281 -1.25 7.03125 -1.46875 L 7.03125 -0.359375 C 6.613281 -0.179688 6.179688 -0.046875 5.734375 0.046875 C 5.296875 0.140625 4.851562 0.1875 4.40625 0.1875 C 3.269531 0.1875 2.367188 -0.140625 1.703125 -0.796875 C 1.046875 -1.460938 0.71875 -2.359375 0.71875 -3.484375 C 0.71875 -4.648438 1.03125 -5.570312 1.65625 -6.25 C 2.289062 -6.9375 3.140625 -7.28125 4.203125 -7.28125 C 5.160156 -7.28125 5.914062 -6.972656 6.46875 -6.359375 C 7.03125 -5.742188 7.3125 -4.90625 7.3125 -3.84375 Z M 6.140625 -4.1875 C 6.128906 -4.820312 5.945312 -5.332031 5.59375 -5.71875 C 5.25 -6.101562 4.789062 -6.296875 4.21875 -6.296875 C 3.5625 -6.296875 3.035156 -6.109375 2.640625 -5.734375 C 2.253906 -5.367188 2.03125 -4.851562 1.96875 -4.1875 Z M 6.140625 -4.1875 "/>
</symbol>
<symbol overflow="visible" id="glyph0-13">
<path style="stroke:none;" d="M 6.328125 -3.546875 C 6.328125 -4.410156 6.148438 -5.082031 5.796875 -5.5625 C 5.441406 -6.050781 4.957031 -6.296875 4.34375 -6.296875 C 3.726562 -6.296875 3.242188 -6.050781 2.890625 -5.5625 C 2.535156 -5.082031 2.359375 -4.410156 2.359375 -3.546875 C 2.359375 -2.691406 2.535156 -2.019531 2.890625 -1.53125 C 3.242188 -1.039062 3.726562 -0.796875 4.34375 -0.796875 C 4.957031 -0.796875 5.441406 -1.039062 5.796875 -1.53125 C 6.148438 -2.019531 6.328125 -2.691406 6.328125 -3.546875 Z M 2.359375 -6.03125 C 2.597656 -6.457031 2.90625 -6.769531 3.28125 -6.96875 C 3.65625 -7.175781 4.101562 -7.28125 4.625 -7.28125 C 5.488281 -7.28125 6.191406 -6.9375 6.734375 -6.25 C 7.273438 -5.5625 7.546875 -4.660156 7.546875 -3.546875 C 7.546875 -2.429688 7.273438 -1.53125 6.734375 -0.84375 C 6.191406 -0.15625 5.488281 0.1875 4.625 0.1875 C 4.101562 0.1875 3.65625 0.0820312 3.28125 -0.125 C 2.90625 -0.332031 2.597656 -0.644531 2.359375 -1.0625 L 2.359375 0 L 1.1875 0 L 1.1875 -9.875 L 2.359375 -9.875 Z M 2.359375 -6.03125 "/>
</symbol>
<symbol overflow="visible" id="glyph0-14">
<path style="stroke:none;" d="M 6.625 2.15625 L 6.625 3.0625 L -0.125 3.0625 L -0.125 2.15625 Z M 6.625 2.15625 "/>
</symbol>
<symbol overflow="visible" id="glyph0-15">
<path style="stroke:none;" d="M 3.984375 -6.296875 C 3.359375 -6.296875 2.863281 -6.050781 2.5 -5.5625 C 2.132812 -5.070312 1.953125 -4.398438 1.953125 -3.546875 C 1.953125 -2.691406 2.128906 -2.019531 2.484375 -1.53125 C 2.847656 -1.050781 3.347656 -0.8125 3.984375 -0.8125 C 4.597656 -0.8125 5.085938 -1.054688 5.453125 -1.546875 C 5.816406 -2.035156 6 -2.703125 6 -3.546875 C 6 -4.390625 5.816406 -5.054688 5.453125 -5.546875 C 5.085938 -6.046875 4.597656 -6.296875 3.984375 -6.296875 Z M 3.984375 -7.28125 C 4.992188 -7.28125 5.789062 -6.945312 6.375 -6.28125 C 6.957031 -5.625 7.25 -4.710938 7.25 -3.546875 C 7.25 -2.378906 6.957031 -1.460938 6.375 -0.796875 C 5.789062 -0.140625 4.992188 0.1875 3.984375 0.1875 C 2.960938 0.1875 2.160156 -0.140625 1.578125 -0.796875 C 1.003906 -1.460938 0.71875 -2.378906 0.71875 -3.546875 C 0.71875 -4.710938 1.003906 -5.625 1.578125 -6.28125 C 2.160156 -6.945312 2.960938 -7.28125 3.984375 -7.28125 Z M 3.984375 -7.28125 "/>
</symbol>
<symbol overflow="visible" id="glyph0-16">
<path style="stroke:none;" d="M 5.34375 -6.015625 C 5.207031 -6.085938 5.0625 -6.140625 4.90625 -6.171875 C 4.757812 -6.210938 4.59375 -6.234375 4.40625 -6.234375 C 3.75 -6.234375 3.242188 -6.019531 2.890625 -5.59375 C 2.535156 -5.164062 2.359375 -4.550781 2.359375 -3.75 L 2.359375 0 L 1.1875 0 L 1.1875 -7.109375 L 2.359375 -7.109375 L 2.359375 -6 C 2.597656 -6.4375 2.914062 -6.757812 3.3125 -6.96875 C 3.707031 -7.175781 4.1875 -7.28125 4.75 -7.28125 C 4.832031 -7.28125 4.921875 -7.273438 5.015625 -7.265625 C 5.109375 -7.253906 5.21875 -7.238281 5.34375 -7.21875 Z M 5.34375 -6.015625 "/>
</symbol>
<symbol overflow="visible" id="glyph0-17">
<path style="stroke:none;" d="M 2.375 -9.125 L 2.375 -7.109375 L 4.78125 -7.109375 L 4.78125 -6.203125 L 2.375 -6.203125 L 2.375 -2.34375 C 2.375 -1.757812 2.453125 -1.382812 2.609375 -1.21875 C 2.773438 -1.0625 3.101562 -0.984375 3.59375 -0.984375 L 4.78125 -0.984375 L 4.78125 0 L 3.59375 0 C 2.6875 0 2.0625 -0.164062 1.71875 -0.5 C 1.375 -0.84375 1.203125 -1.457031 1.203125 -2.34375 L 1.203125 -6.203125 L 0.34375 -6.203125 L 0.34375 -7.109375 L 1.203125 -7.109375 L 1.203125 -9.125 Z M 2.375 -9.125 "/>
</symbol>
<symbol overflow="visible" id="glyph0-18">
<path style="stroke:none;" d="M 0.546875 -7.109375 L 1.71875 -7.109375 L 3.171875 -1.5625 L 4.625 -7.109375 L 6 -7.109375 L 7.46875 -1.5625 L 8.921875 -7.109375 L 10.09375 -7.109375 L 8.234375 0 L 6.84375 0 L 5.3125 -5.828125 L 3.78125 0 L 2.40625 0 Z M 0.546875 -7.109375 "/>
</symbol>
<symbol overflow="visible" id="glyph0-19">
<path style="stroke:none;" d=""/>
</symbol>
<symbol overflow="visible" id="glyph0-20">
<path style="stroke:none;" d="M 6.953125 -9.171875 L 6.953125 -7.921875 C 6.472656 -8.148438 6.015625 -8.320312 5.578125 -8.4375 C 5.148438 -8.550781 4.734375 -8.609375 4.328125 -8.609375 C 3.628906 -8.609375 3.085938 -8.472656 2.703125 -8.203125 C 2.328125 -7.929688 2.140625 -7.546875 2.140625 -7.046875 C 2.140625 -6.628906 2.265625 -6.3125 2.515625 -6.09375 C 2.773438 -5.882812 3.253906 -5.710938 3.953125 -5.578125 L 4.734375 -5.421875 C 5.679688 -5.234375 6.382812 -4.910156 6.84375 -4.453125 C 7.300781 -3.992188 7.53125 -3.378906 7.53125 -2.609375 C 7.53125 -1.691406 7.222656 -0.992188 6.609375 -0.515625 C 5.992188 -0.046875 5.085938 0.1875 3.890625 0.1875 C 3.441406 0.1875 2.960938 0.132812 2.453125 0.03125 C 1.953125 -0.0703125 1.429688 -0.222656 0.890625 -0.421875 L 0.890625 -1.734375 C 1.410156 -1.441406 1.921875 -1.222656 2.421875 -1.078125 C 2.921875 -0.929688 3.410156 -0.859375 3.890625 -0.859375 C 4.628906 -0.859375 5.195312 -1 5.59375 -1.28125 C 5.988281 -1.570312 6.1875 -1.984375 6.1875 -2.515625 C 6.1875 -2.984375 6.039062 -3.347656 5.75 -3.609375 C 5.46875 -3.867188 5.003906 -4.066406 4.359375 -4.203125 L 3.578125 -4.359375 C 2.617188 -4.546875 1.925781 -4.84375 1.5 -5.25 C 1.070312 -5.65625 0.859375 -6.21875 0.859375 -6.9375 C 0.859375 -7.78125 1.148438 -8.441406 1.734375 -8.921875 C 2.328125 -9.410156 3.144531 -9.65625 4.1875 -9.65625 C 4.625 -9.65625 5.070312 -9.613281 5.53125 -9.53125 C 6 -9.445312 6.472656 -9.328125 6.953125 -9.171875 Z M 6.953125 -9.171875 "/>
</symbol>
<symbol overflow="visible" id="glyph0-21">
<path style="stroke:none;" d="M 4.03125 -9.859375 C 3.46875 -8.890625 3.046875 -7.925781 2.765625 -6.96875 C 2.492188 -6.019531 2.359375 -5.054688 2.359375 -4.078125 C 2.359375 -3.097656 2.492188 -2.128906 2.765625 -1.171875 C 3.046875 -0.210938 3.46875 0.75 4.03125 1.71875 L 3.015625 1.71875 C 2.378906 0.71875 1.90625 -0.257812 1.59375 -1.21875 C 1.28125 -2.175781 1.125 -3.128906 1.125 -4.078125 C 1.125 -5.023438 1.28125 -5.972656 1.59375 -6.921875 C 1.90625 -7.878906 2.378906 -8.859375 3.015625 -9.859375 Z M 4.03125 -9.859375 "/>
</symbol>
<symbol overflow="visible" id="glyph0-22">
<path style="stroke:none;" d="M 5.765625 -4.4375 C 6.046875 -4.34375 6.316406 -4.144531 6.578125 -3.84375 C 6.835938 -3.539062 7.097656 -3.125 7.359375 -2.59375 L 8.65625 0 L 7.28125 0 L 6.0625 -2.4375 C 5.75 -3.070312 5.445312 -3.488281 5.15625 -3.6875 C 4.863281 -3.894531 4.460938 -4 3.953125 -4 L 2.5625 -4 L 2.5625 0 L 1.28125 0 L 1.28125 -9.484375 L 4.171875 -9.484375 C 5.253906 -9.484375 6.0625 -9.253906 6.59375 -8.796875 C 7.125 -8.347656 7.390625 -7.664062 7.390625 -6.75 C 7.390625 -6.15625 7.25 -5.660156 6.96875 -5.265625 C 6.695312 -4.867188 6.296875 -4.59375 5.765625 -4.4375 Z M 2.5625 -8.421875 L 2.5625 -5.0625 L 4.171875 -5.0625 C 4.785156 -5.0625 5.25 -5.203125 5.5625 -5.484375 C 5.882812 -5.773438 6.046875 -6.195312 6.046875 -6.75 C 6.046875 -7.300781 5.882812 -7.71875 5.5625 -8 C 5.25 -8.28125 4.785156 -8.421875 4.171875 -8.421875 Z M 2.5625 -8.421875 "/>
</symbol>
<symbol overflow="visible" id="glyph0-23">
<path style="stroke:none;" d="M 2.5 -1.078125 L 6.96875 -1.078125 L 6.96875 0 L 0.953125 0 L 0.953125 -1.078125 C 1.441406 -1.578125 2.101562 -2.25 2.9375 -3.09375 C 3.78125 -3.945312 4.3125 -4.5 4.53125 -4.75 C 4.9375 -5.207031 5.21875 -5.597656 5.375 -5.921875 C 5.539062 -6.242188 5.625 -6.554688 5.625 -6.859375 C 5.625 -7.367188 5.445312 -7.78125 5.09375 -8.09375 C 4.75 -8.40625 4.289062 -8.5625 3.71875 -8.5625 C 3.3125 -8.5625 2.882812 -8.492188 2.4375 -8.359375 C 2 -8.222656 1.523438 -8.007812 1.015625 -7.71875 L 1.015625 -9.015625 C 1.535156 -9.222656 2.019531 -9.378906 2.46875 -9.484375 C 2.914062 -9.597656 3.320312 -9.65625 3.6875 -9.65625 C 4.675781 -9.65625 5.460938 -9.40625 6.046875 -8.90625 C 6.628906 -8.414062 6.921875 -7.757812 6.921875 -6.9375 C 6.921875 -6.550781 6.847656 -6.179688 6.703125 -5.828125 C 6.554688 -5.484375 6.289062 -5.078125 5.90625 -4.609375 C 5.800781 -4.484375 5.460938 -4.125 4.890625 -3.53125 C 4.328125 -2.945312 3.53125 -2.128906 2.5 -1.078125 Z M 2.5 -1.078125 "/>
</symbol>
<symbol overflow="visible" id="glyph0-24">
<path style="stroke:none;" d="M 5.28125 -5.109375 C 5.894531 -4.972656 6.375 -4.695312 6.71875 -4.28125 C 7.0625 -3.875 7.234375 -3.363281 7.234375 -2.75 C 7.234375 -1.820312 6.910156 -1.097656 6.265625 -0.578125 C 5.617188 -0.0664062 4.703125 0.1875 3.515625 0.1875 C 3.117188 0.1875 2.707031 0.144531 2.28125 0.0625 C 1.863281 -0.0078125 1.429688 -0.125 0.984375 -0.28125 L 0.984375 -1.53125 C 1.347656 -1.320312 1.738281 -1.160156 2.15625 -1.046875 C 2.582031 -0.941406 3.023438 -0.890625 3.484375 -0.890625 C 4.285156 -0.890625 4.894531 -1.046875 5.3125 -1.359375 C 5.738281 -1.679688 5.953125 -2.144531 5.953125 -2.75 C 5.953125 -3.3125 5.753906 -3.75 5.359375 -4.0625 C 4.972656 -4.375 4.429688 -4.53125 3.734375 -4.53125 L 2.625 -4.53125 L 2.625 -5.59375 L 3.78125 -5.59375 C 4.414062 -5.59375 4.898438 -5.71875 5.234375 -5.96875 C 5.566406 -6.21875 5.734375 -6.582031 5.734375 -7.0625 C 5.734375 -7.539062 5.5625 -7.910156 5.21875 -8.171875 C 4.875 -8.429688 4.378906 -8.5625 3.734375 -8.5625 C 3.378906 -8.5625 3 -8.523438 2.59375 -8.453125 C 2.195312 -8.378906 1.757812 -8.257812 1.28125 -8.09375 L 1.28125 -9.25 C 1.757812 -9.382812 2.210938 -9.484375 2.640625 -9.546875 C 3.066406 -9.617188 3.46875 -9.65625 3.84375 -9.65625 C 4.820312 -9.65625 5.59375 -9.429688 6.15625 -8.984375 C 6.726562 -8.546875 7.015625 -7.945312 7.015625 -7.1875 C 7.015625 -6.664062 6.863281 -6.222656 6.5625 -5.859375 C 6.257812 -5.492188 5.832031 -5.242188 5.28125 -5.109375 Z M 5.28125 -5.109375 "/>
</symbol>
<symbol overflow="visible" id="glyph0-25">
<path style="stroke:none;" d="M 0.640625 -4.078125 L 4.0625 -4.078125 L 4.0625 -3.046875 L 0.640625 -3.046875 Z M 0.640625 -4.078125 "/>
</symbol>
<symbol overflow="visible" id="glyph0-26">
<path style="stroke:none;" d="M 1.125 -9.484375 L 2.421875 -9.484375 L 2.421875 -3.71875 C 2.421875 -2.707031 2.601562 -1.976562 2.96875 -1.53125 C 3.332031 -1.082031 3.929688 -0.859375 4.765625 -0.859375 C 5.585938 -0.859375 6.179688 -1.082031 6.546875 -1.53125 C 6.910156 -1.976562 7.09375 -2.707031 7.09375 -3.71875 L 7.09375 -9.484375 L 8.390625 -9.484375 L 8.390625 -3.5625 C 8.390625 -2.320312 8.082031 -1.382812 7.46875 -0.75 C 6.851562 -0.125 5.953125 0.1875 4.765625 0.1875 C 3.566406 0.1875 2.660156 -0.125 2.046875 -0.75 C 1.429688 -1.382812 1.125 -2.320312 1.125 -3.5625 Z M 1.125 -9.484375 "/>
</symbol>
<symbol overflow="visible" id="glyph0-27">
<path style="stroke:none;" d="M 1.046875 -9.859375 L 2.0625 -9.859375 C 2.695312 -8.859375 3.171875 -7.878906 3.484375 -6.921875 C 3.796875 -5.972656 3.953125 -5.023438 3.953125 -4.078125 C 3.953125 -3.128906 3.796875 -2.175781 3.484375 -1.21875 C 3.171875 -0.257812 2.695312 0.71875 2.0625 1.71875 L 1.046875 1.71875 C 1.609375 0.75 2.023438 -0.210938 2.296875 -1.171875 C 2.578125 -2.128906 2.71875 -3.097656 2.71875 -4.078125 C 2.71875 -5.054688 2.578125 -6.019531 2.296875 -6.96875 C 2.023438 -7.925781 1.609375 -8.890625 1.046875 -9.859375 Z M 1.046875 -9.859375 "/>
</symbol>
<symbol overflow="visible" id="glyph0-28">
<path style="stroke:none;" d="M 4.828125 -9.875 L 4.828125 -8.90625 L 3.703125 -8.90625 C 3.285156 -8.90625 2.992188 -8.816406 2.828125 -8.640625 C 2.671875 -8.472656 2.59375 -8.171875 2.59375 -7.734375 L 2.59375 -7.109375 L 4.515625 -7.109375 L 4.515625 -6.203125 L 2.59375 -6.203125 L 2.59375 0 L 1.421875 0 L 1.421875 -6.203125 L 0.296875 -6.203125 L 0.296875 -7.109375 L 1.421875 -7.109375 L 1.421875 -7.609375 C 1.421875 -8.398438 1.601562 -8.972656 1.96875 -9.328125 C 2.332031 -9.691406 2.914062 -9.875 3.71875 -9.875 Z M 4.828125 -9.875 "/>
</symbol>
<symbol overflow="visible" id="glyph0-29">
<path style="stroke:none;" d="M 5.90625 -3.640625 C 5.90625 -4.484375 5.726562 -5.132812 5.375 -5.59375 C 5.03125 -6.0625 4.539062 -6.296875 3.90625 -6.296875 C 3.28125 -6.296875 2.789062 -6.0625 2.4375 -5.59375 C 2.09375 -5.132812 1.921875 -4.484375 1.921875 -3.640625 C 1.921875 -2.796875 2.09375 -2.140625 2.4375 -1.671875 C 2.789062 -1.210938 3.28125 -0.984375 3.90625 -0.984375 C 4.539062 -0.984375 5.03125 -1.210938 5.375 -1.671875 C 5.726562 -2.140625 5.90625 -2.796875 5.90625 -3.640625 Z M 7.078125 -0.875 C 7.078125 0.332031 6.804688 1.226562 6.265625 1.8125 C 5.722656 2.40625 4.898438 2.703125 3.796875 2.703125 C 3.390625 2.703125 3.003906 2.671875 2.640625 2.609375 C 2.273438 2.546875 1.921875 2.453125 1.578125 2.328125 L 1.578125 1.1875 C 1.921875 1.375 2.257812 1.507812 2.59375 1.59375 C 2.925781 1.6875 3.265625 1.734375 3.609375 1.734375 C 4.378906 1.734375 4.953125 1.535156 5.328125 1.140625 C 5.710938 0.742188 5.90625 0.140625 5.90625 -0.671875 L 5.90625 -1.25 C 5.664062 -0.832031 5.351562 -0.519531 4.96875 -0.3125 C 4.59375 -0.101562 4.144531 0 3.625 0 C 2.75 0 2.046875 -0.332031 1.515625 -1 C 0.984375 -1.664062 0.71875 -2.546875 0.71875 -3.640625 C 0.71875 -4.734375 0.984375 -5.613281 1.515625 -6.28125 C 2.046875 -6.945312 2.75 -7.28125 3.625 -7.28125 C 4.144531 -7.28125 4.59375 -7.175781 4.96875 -6.96875 C 5.351562 -6.757812 5.664062 -6.445312 5.90625 -6.03125 L 5.90625 -7.109375 L 7.078125 -7.109375 Z M 7.078125 -0.875 "/>
</symbol>
<symbol overflow="visible" id="glyph0-30">
<path style="stroke:none;" d="M 9.515625 -6.40625 L 2.96875 -4.0625 L 9.515625 -1.75 L 9.515625 -0.59375 L 1.375 -3.546875 L 1.375 -4.609375 L 9.515625 -7.546875 Z M 9.515625 -6.40625 "/>
</symbol>
<symbol overflow="visible" id="glyph0-31">
<path style="stroke:none;" d="M 7.140625 -7.109375 L 4.5625 -3.65625 L 7.265625 0 L 5.890625 0 L 3.828125 -2.796875 L 1.75 0 L 0.375 0 L 3.140625 -3.71875 L 0.609375 -7.109375 L 1.984375 -7.109375 L 3.875 -4.578125 L 5.75 -7.109375 Z M 7.140625 -7.109375 "/>
</symbol>
<symbol overflow="visible" id="glyph0-32">
<path style="stroke:none;" d="M 1.375 -6.40625 L 1.375 -7.546875 L 9.515625 -4.609375 L 9.515625 -3.546875 L 1.375 -0.59375 L 1.375 -1.75 L 7.921875 -4.0625 Z M 1.375 -6.40625 "/>
</symbol>
<symbol overflow="visible" id="glyph0-33">
<path style="stroke:none;" d="M 1.390625 -1.609375 L 2.734375 -1.609375 L 2.734375 0 L 1.390625 0 Z M 1.390625 -1.609375 "/>
</symbol>
<symbol overflow="visible" id="glyph0-34">
<path style="stroke:none;" d="M 6.765625 -5.75 C 7.054688 -6.269531 7.40625 -6.65625 7.8125 -6.90625 C 8.21875 -7.15625 8.695312 -7.28125 9.25 -7.28125 C 9.988281 -7.28125 10.554688 -7.019531 10.953125 -6.5 C 11.359375 -5.976562 11.5625 -5.242188 11.5625 -4.296875 L 11.5625 0 L 10.390625 0 L 10.390625 -4.25 C 10.390625 -4.9375 10.265625 -5.441406 10.015625 -5.765625 C 9.773438 -6.097656 9.410156 -6.265625 8.921875 -6.265625 C 8.316406 -6.265625 7.835938 -6.0625 7.484375 -5.65625 C 7.128906 -5.257812 6.953125 -4.710938 6.953125 -4.015625 L 6.953125 0 L 5.78125 0 L 5.78125 -4.25 C 5.78125 -4.9375 5.660156 -5.441406 5.421875 -5.765625 C 5.179688 -6.097656 4.804688 -6.265625 4.296875 -6.265625 C 3.703125 -6.265625 3.226562 -6.0625 2.875 -5.65625 C 2.53125 -5.25 2.359375 -4.703125 2.359375 -4.015625 L 2.359375 0 L 1.1875 0 L 1.1875 -7.109375 L 2.359375 -7.109375 L 2.359375 -6 C 2.617188 -6.4375 2.9375 -6.757812 3.3125 -6.96875 C 3.6875 -7.175781 4.128906 -7.28125 4.640625 -7.28125 C 5.160156 -7.28125 5.597656 -7.148438 5.953125 -6.890625 C 6.316406 -6.628906 6.585938 -6.25 6.765625 -5.75 Z M 6.765625 -5.75 "/>
</symbol>
<symbol overflow="visible" id="glyph0-35">
<path style="stroke:none;" d="M 5.90625 -6.03125 L 5.90625 -9.875 L 7.078125 -9.875 L 7.078125 0 L 5.90625 0 L 5.90625 -1.0625 C 5.65625 -0.644531 5.34375 -0.332031 4.96875 -0.125 C 4.59375 0.0820312 4.144531 0.1875 3.625 0.1875 C 2.769531 0.1875 2.070312 -0.15625 1.53125 -0.84375 C 0.988281 -1.53125 0.71875 -2.429688 0.71875 -3.546875 C 0.71875 -4.660156 0.988281 -5.5625 1.53125 -6.25 C 2.070312 -6.9375 2.769531 -7.28125 3.625 -7.28125 C 4.144531 -7.28125 4.59375 -7.175781 4.96875 -6.96875 C 5.34375 -6.769531 5.65625 -6.457031 5.90625 -6.03125 Z M 1.921875 -3.546875 C 1.921875 -2.691406 2.097656 -2.019531 2.453125 -1.53125 C 2.804688 -1.039062 3.289062 -0.796875 3.90625 -0.796875 C 4.53125 -0.796875 5.019531 -1.039062 5.375 -1.53125 C 5.726562 -2.019531 5.90625 -2.691406 5.90625 -3.546875 C 5.90625 -4.410156 5.726562 -5.082031 5.375 -5.5625 C 5.019531 -6.050781 4.53125 -6.296875 3.90625 -6.296875 C 3.289062 -6.296875 2.804688 -6.050781 2.453125 -5.5625 C 2.097656 -5.082031 1.921875 -4.410156 1.921875 -3.546875 Z M 1.921875 -3.546875 "/>
</symbol>
<symbol overflow="visible" id="glyph0-36">
<path style="stroke:none;" d="M 1.921875 -3.546875 C 1.921875 -2.691406 2.097656 -2.019531 2.453125 -1.53125 C 2.804688 -1.039062 3.289062 -0.796875 3.90625 -0.796875 C 4.53125 -0.796875 5.019531 -1.039062 5.375 -1.53125 C 5.726562 -2.019531 5.90625 -2.691406 5.90625 -3.546875 C 5.90625 -4.410156 5.726562 -5.082031 5.375 -5.5625 C 5.019531 -6.050781 4.53125 -6.296875 3.90625 -6.296875 C 3.289062 -6.296875 2.804688 -6.050781 2.453125 -5.5625 C 2.097656 -5.082031 1.921875 -4.410156 1.921875 -3.546875 Z M 5.90625 -1.0625 C 5.65625 -0.644531 5.34375 -0.332031 4.96875 -0.125 C 4.59375 0.0820312 4.144531 0.1875 3.625 0.1875 C 2.769531 0.1875 2.070312 -0.15625 1.53125 -0.84375 C 0.988281 -1.53125 0.71875 -2.429688 0.71875 -3.546875 C 0.71875 -4.660156 0.988281 -5.5625 1.53125 -6.25 C 2.070312 -6.9375 2.769531 -7.28125 3.625 -7.28125 C 4.144531 -7.28125 4.59375 -7.175781 4.96875 -6.96875 C 5.34375 -6.769531 5.65625 -6.457031 5.90625 -6.03125 L 5.90625 -7.109375 L 7.078125 -7.109375 L 7.078125 2.703125 L 5.90625 2.703125 Z M 5.90625 -1.0625 "/>
</symbol>
<symbol overflow="visible" id="glyph0-37">
<path style="stroke:none;" d="M 1.109375 -2.8125 L 1.109375 -7.109375 L 2.265625 -7.109375 L 2.265625 -2.84375 C 2.265625 -2.175781 2.394531 -1.671875 2.65625 -1.328125 C 2.925781 -0.992188 3.320312 -0.828125 3.84375 -0.828125 C 4.476562 -0.828125 4.976562 -1.023438 5.34375 -1.421875 C 5.707031 -1.828125 5.890625 -2.378906 5.890625 -3.078125 L 5.890625 -7.109375 L 7.0625 -7.109375 L 7.0625 0 L 5.890625 0 L 5.890625 -1.09375 C 5.609375 -0.65625 5.28125 -0.332031 4.90625 -0.125 C 4.53125 0.0820312 4.09375 0.1875 3.59375 0.1875 C 2.78125 0.1875 2.160156 -0.0664062 1.734375 -0.578125 C 1.316406 -1.085938 1.109375 -1.832031 1.109375 -2.8125 Z M 1.109375 -2.8125 "/>
</symbol>
<symbol overflow="visible" id="glyph0-38">
<path style="stroke:none;" d="M 0.390625 -7.109375 L 1.625 -7.109375 L 3.84375 -1.140625 L 6.0625 -7.109375 L 7.3125 -7.109375 L 4.640625 0 L 3.046875 0 Z M 0.390625 -7.109375 "/>
</symbol>
<symbol overflow="visible" id="glyph1-0">
<path style="stroke:none;" d="M 15.59375 -31.90625 L 15.59375 -28.765625 L 11.984375 -28.765625 C 10.628906 -28.765625 9.6875 -28.488281 9.15625 -27.9375 C 8.632812 -27.394531 8.375 -26.414062 8.375 -25 L 8.375 -22.96875 L 14.578125 -22.96875 L 14.578125 -20.03125 L 8.375 -20.03125 L 8.375 0 L 4.578125 0 L 4.578125 -20.03125 L 0.96875 -20.03125 L 0.96875 -22.96875 L 4.578125 -22.96875 L 4.578125 -24.5625 C 4.578125 -27.125 5.171875 -28.988281 6.359375 -30.15625 C 7.546875 -31.320312 9.429688 -31.90625 12.015625 -31.90625 Z M 15.59375 -31.90625 "/>
</symbol>
<symbol overflow="visible" id="glyph1-1">
<path style="stroke:none;" d="M 3.953125 -31.90625 L 7.734375 -31.90625 L 7.734375 0 L 3.953125 0 Z M 3.953125 -31.90625 "/>
</symbol>
<symbol overflow="visible" id="glyph1-2">
<path style="stroke:none;" d="M 7.6875 -29.484375 L 7.6875 -22.96875 L 15.46875 -22.96875 L 15.46875 -20.03125 L 7.6875 -20.03125 L 7.6875 -7.5625 C 7.6875 -5.695312 7.941406 -4.492188 8.453125 -3.953125 C 8.972656 -3.421875 10.019531 -3.15625 11.59375 -3.15625 L 15.46875 -3.15625 L 15.46875 0 L 11.59375 0 C 8.675781 0 6.660156 -0.539062 5.546875 -1.625 C 4.441406 -2.71875 3.890625 -4.695312 3.890625 -7.5625 L 3.890625 -20.03125 L 1.125 -20.03125 L 1.125 -22.96875 L 3.890625 -22.96875 L 3.890625 -29.484375 Z M 7.6875 -29.484375 "/>
</symbol>
<symbol overflow="visible" id="glyph1-3">
<path style="stroke:none;" d="M 21.40625 6.96875 L 21.40625 9.90625 L -0.40625 9.90625 L -0.40625 6.96875 Z M 21.40625 6.96875 "/>
</symbol>
<symbol overflow="visible" id="glyph1-4">
<path style="stroke:none;" d="M 17.265625 -19.4375 C 16.835938 -19.6875 16.375 -19.867188 15.875 -19.984375 C 15.382812 -20.097656 14.835938 -20.15625 14.234375 -20.15625 C 12.097656 -20.15625 10.457031 -19.460938 9.3125 -18.078125 C 8.175781 -16.691406 7.609375 -14.695312 7.609375 -12.09375 L 7.609375 0 L 3.8125 0 L 3.8125 -22.96875 L 7.609375 -22.96875 L 7.609375 -19.40625 C 8.398438 -20.800781 9.429688 -21.832031 10.703125 -22.5 C 11.972656 -23.175781 13.519531 -23.515625 15.34375 -23.515625 C 15.601562 -23.515625 15.890625 -23.5 16.203125 -23.46875 C 16.515625 -23.4375 16.863281 -23.382812 17.25 -23.3125 Z M 17.265625 -19.4375 "/>
</symbol>
<symbol overflow="visible" id="glyph1-5">
<path style="stroke:none;" d="M 23.609375 -12.421875 L 23.609375 -10.578125 L 6.25 -10.578125 C 6.414062 -7.984375 7.195312 -6.003906 8.59375 -4.640625 C 10 -3.285156 11.953125 -2.609375 14.453125 -2.609375 C 15.898438 -2.609375 17.304688 -2.785156 18.671875 -3.140625 C 20.035156 -3.492188 21.382812 -4.023438 22.71875 -4.734375 L 22.71875 -1.171875 C 21.363281 -0.597656 19.972656 -0.160156 18.546875 0.140625 C 17.128906 0.441406 15.691406 0.59375 14.234375 0.59375 C 10.566406 0.59375 7.660156 -0.46875 5.515625 -2.59375 C 3.378906 -4.726562 2.3125 -7.617188 2.3125 -11.265625 C 2.3125 -15.023438 3.328125 -18.003906 5.359375 -20.203125 C 7.390625 -22.410156 10.128906 -23.515625 13.578125 -23.515625 C 16.671875 -23.515625 19.113281 -22.519531 20.90625 -20.53125 C 22.707031 -18.550781 23.609375 -15.847656 23.609375 -12.421875 Z M 19.828125 -13.53125 C 19.804688 -15.59375 19.226562 -17.238281 18.09375 -18.46875 C 16.96875 -19.707031 15.476562 -20.328125 13.625 -20.328125 C 11.507812 -20.328125 9.820312 -19.726562 8.5625 -18.53125 C 7.300781 -17.34375 6.570312 -15.671875 6.375 -13.515625 Z M 19.828125 -13.53125 "/>
</symbol>
<symbol overflow="visible" id="glyph1-6">
<path style="stroke:none;" d="M 19.078125 -19.484375 L 19.078125 -31.90625 L 22.84375 -31.90625 L 22.84375 0 L 19.078125 0 L 19.078125 -3.453125 C 18.285156 -2.078125 17.28125 -1.054688 16.0625 -0.390625 C 14.851562 0.265625 13.398438 0.59375 11.703125 0.59375 C 8.929688 0.59375 6.671875 -0.507812 4.921875 -2.71875 C 3.179688 -4.9375 2.3125 -7.851562 2.3125 -11.46875 C 2.3125 -15.070312 3.179688 -17.976562 4.921875 -20.1875 C 6.671875 -22.40625 8.929688 -23.515625 11.703125 -23.515625 C 13.398438 -23.515625 14.851562 -23.179688 16.0625 -22.515625 C 17.28125 -21.859375 18.285156 -20.847656 19.078125 -19.484375 Z M 6.21875 -11.46875 C 6.21875 -8.6875 6.785156 -6.503906 7.921875 -4.921875 C 9.066406 -3.347656 10.640625 -2.5625 12.640625 -2.5625 C 14.628906 -2.5625 16.195312 -3.347656 17.34375 -4.921875 C 18.5 -6.503906 19.078125 -8.6875 19.078125 -11.46875 C 19.078125 -14.238281 18.5 -16.410156 17.34375 -17.984375 C 16.195312 -19.566406 14.628906 -20.359375 12.640625 -20.359375 C 10.640625 -20.359375 9.066406 -19.566406 7.921875 -17.984375 C 6.785156 -16.410156 6.21875 -14.238281 6.21875 -11.46875 Z M 6.21875 -11.46875 "/>
</symbol>
<symbol overflow="visible" id="glyph1-7">
<path style="stroke:none;" d="M 3.953125 -22.96875 L 7.734375 -22.96875 L 7.734375 0 L 3.953125 0 Z M 3.953125 -31.90625 L 7.734375 -31.90625 L 7.734375 -27.125 L 3.953125 -27.125 Z M 3.953125 -31.90625 "/>
</symbol>
<symbol overflow="visible" id="glyph1-8">
<path style="stroke:none;" d="M 18.59375 -22.296875 L 18.59375 -18.71875 C 17.53125 -19.269531 16.425781 -19.679688 15.28125 -19.953125 C 14.132812 -20.222656 12.941406 -20.359375 11.703125 -20.359375 C 9.835938 -20.359375 8.4375 -20.070312 7.5 -19.5 C 6.5625 -18.925781 6.09375 -18.066406 6.09375 -16.921875 C 6.09375 -16.046875 6.425781 -15.359375 7.09375 -14.859375 C 7.757812 -14.359375 9.109375 -13.882812 11.140625 -13.4375 L 12.421875 -13.140625 C 15.109375 -12.566406 17.015625 -11.753906 18.140625 -10.703125 C 19.265625 -9.660156 19.828125 -8.207031 19.828125 -6.34375 C 19.828125 -4.207031 18.984375 -2.515625 17.296875 -1.265625 C 15.609375 -0.0234375 13.289062 0.59375 10.34375 0.59375 C 9.101562 0.59375 7.816406 0.472656 6.484375 0.234375 C 5.148438 -0.00390625 3.75 -0.363281 2.28125 -0.84375 L 2.28125 -4.734375 C 3.675781 -4.015625 5.046875 -3.472656 6.390625 -3.109375 C 7.742188 -2.742188 9.085938 -2.5625 10.421875 -2.5625 C 12.191406 -2.5625 13.554688 -2.863281 14.515625 -3.46875 C 15.472656 -4.082031 15.953125 -4.941406 15.953125 -6.046875 C 15.953125 -7.078125 15.609375 -7.863281 14.921875 -8.40625 C 14.234375 -8.957031 12.71875 -9.484375 10.375 -9.984375 L 9.0625 -10.296875 C 6.726562 -10.785156 5.039062 -11.539062 4 -12.5625 C 2.957031 -13.582031 2.4375 -14.976562 2.4375 -16.75 C 2.4375 -18.914062 3.203125 -20.582031 4.734375 -21.75 C 6.265625 -22.925781 8.441406 -23.515625 11.265625 -23.515625 C 12.648438 -23.515625 13.957031 -23.410156 15.1875 -23.203125 C 16.425781 -23.003906 17.5625 -22.703125 18.59375 -22.296875 Z M 18.59375 -22.296875 "/>
</symbol>
</g>
</defs>
<g id="surface154355">
<rect x="0" y="0" width="1326" height="863" style="fill:rgb(100%,100%,100%);fill-opacity:1;stroke:none;"/>
<path style="fill-rule:evenodd;fill:rgb(100%,100%,100%);fill-opacity:1;stroke-width:0.15;stroke-linecap:butt;stroke-linejoin:miter;stroke:rgb(0%,0%,0%);stroke-opacity:1;stroke-miterlimit:10;" d="M 5.178553 0.789844 L 8.709217 3.810742 L 5.178553 6.831641 L 1.647889 3.810742 Z M 5.178553 0.789844 " transform="matrix(20,0,0,20,-31.457771,41)"/>
<g style="fill:rgb(0%,0%,0%);fill-opacity:1;">
  <use xlink:href="#glyph0-0" x="45.667969" y="113.117188"/>
  <use xlink:href="#glyph0-1" x="53.5" y="113.117188"/>
  <use xlink:href="#glyph0-2" x="61.742188" y="113.117188"/>
  <use xlink:href="#glyph0-3" x="69.4375" y="113.117188"/>
  <use xlink:href="#glyph0-4" x="76.214844" y="113.117188"/>
  <use xlink:href="#glyph0-5" x="79.828125" y="113.117188"/>
  <use xlink:href="#glyph0-6" x="86.976562" y="113.117188"/>
  <use xlink:href="#glyph0-7" x="94.945312" y="113.117188"/>
</g>
<g style="fill:rgb(0%,0%,0%);fill-opacity:1;">
  <use xlink:href="#glyph0-8" x="38.285156" y="129.117188"/>
  <use xlink:href="#glyph0-6" x="47.210938" y="129.117188"/>
  <use xlink:href="#glyph0-5" x="55.179688" y="129.117188"/>
  <use xlink:href="#glyph0-9" x="62.328125" y="129.117188"/>
  <use xlink:href="#glyph0-10" x="69.847656" y="129.117188"/>
  <use xlink:href="#glyph0-7" x="78.109375" y="129.117188"/>
  <use xlink:href="#glyph0-6" x="81.722656" y="129.117188"/>
  <use xlink:href="#glyph0-11" x="89.691406" y="129.117188"/>
  <use xlink:href="#glyph0-12" x="97.933594" y="129.117188"/>
</g>
<path style="fill-rule:evenodd;fill:rgb(100%,100%,100%);fill-opacity:1;stroke-width:0.15;stroke-linecap:butt;stroke-linejoin:miter;stroke:rgb(0%,0%,0%);stroke-opacity:1;stroke-miterlimit:10;" d="M 19.718592 2.398242 L 26.068592 2.398242 L 26.068592 5.223242 L 19.718592 5.223242 Z M 19.718592 2.398242 " transform="matrix(20,0,0,20,-31.457771,41)"/>
<g style="fill:rgb(0%,0%,0%);fill-opacity:1;">
  <use xlink:href="#glyph0-13" x="378.230469" y="121.117188"/>
  <use xlink:href="#glyph0-10" x="386.492188" y="121.117188"/>
  <use xlink:href="#glyph0-14" x="394.753906" y="121.117188"/>
  <use xlink:href="#glyph0-10" x="401.257813" y="121.117188"/>
  <use xlink:href="#glyph0-15" x="409.519531" y="121.117188"/>
  <use xlink:href="#glyph0-16" x="417.46875" y="121.117188"/>
  <use xlink:href="#glyph0-17" x="422.820313" y="121.117188"/>
  <use xlink:href="#glyph0-14" x="427.917969" y="121.117188"/>
  <use xlink:href="#glyph0-15" x="434.421875" y="121.117188"/>
  <use xlink:href="#glyph0-18" x="442.371094" y="121.117188"/>
  <use xlink:href="#glyph0-11" x="452.996094" y="121.117188"/>
  <use xlink:href="#glyph0-12" x="461.238281" y="121.117188"/>
  <use xlink:href="#glyph0-16" x="469.246094" y="121.117188"/>
</g>
<path style="fill-rule:evenodd;fill:rgb(100%,100%,100%);fill-opacity:1;stroke-width:0.15;stroke-linecap:butt;stroke-linejoin:miter;stroke:rgb(0%,0%,0%);stroke-opacity:1;stroke-miterlimit:10;" d="M 10.285779 2.835742 L 15.523279 2.835742 C 16.969568 2.835742 18.142029 3.272266 18.142029 3.810742 C 18.142029 4.349219 16.969568 4.785742 15.523279 4.785742 L 10.285779 4.785742 L 10.285779 2.835742 " transform="matrix(20,0,0,20,-31.457771,41)"/>
<g style="fill:rgb(0%,0%,0%);fill-opacity:1;">
  <use xlink:href="#glyph0-8" x="182.589844" y="113.214844"/>
  <use xlink:href="#glyph0-0" x="191.515625" y="113.214844"/>
  <use xlink:href="#glyph0-19" x="199.347656" y="113.214844"/>
  <use xlink:href="#glyph0-20" x="203.488281" y="113.214844"/>
  <use xlink:href="#glyph0-12" x="211.75" y="113.214844"/>
  <use xlink:href="#glyph0-16" x="219.757812" y="113.214844"/>
  <use xlink:href="#glyph0-4" x="225.109375" y="113.214844"/>
  <use xlink:href="#glyph0-6" x="228.722656" y="113.214844"/>
  <use xlink:href="#glyph0-7" x="236.691406" y="113.214844"/>
  <use xlink:href="#glyph0-19" x="240.304688" y="113.214844"/>
  <use xlink:href="#glyph0-0" x="244.445313" y="113.214844"/>
  <use xlink:href="#glyph0-15" x="252.277344" y="113.214844"/>
  <use xlink:href="#glyph0-16" x="260.226563" y="113.214844"/>
  <use xlink:href="#glyph0-17" x="265.578125" y="113.214844"/>
</g>
<g style="fill:rgb(0%,0%,0%);fill-opacity:1;">
  <use xlink:href="#glyph0-21" x="184.835938" y="129.214844"/>
  <use xlink:href="#glyph0-22" x="189.914062" y="129.214844"/>
  <use xlink:href="#glyph0-20" x="198.9375" y="129.214844"/>
  <use xlink:href="#glyph0-23" x="207.199219" y="129.214844"/>
  <use xlink:href="#glyph0-24" x="215.460938" y="129.214844"/>
  <use xlink:href="#glyph0-23" x="223.722656" y="129.214844"/>
  <use xlink:href="#glyph0-25" x="231.984375" y="129.214844"/>
  <use xlink:href="#glyph0-26" x="236.671875" y="129.214844"/>
  <use xlink:href="#glyph0-20" x="246.183594" y="129.214844"/>
  <use xlink:href="#glyph0-8" x="254.445313" y="129.214844"/>
  <use xlink:href="#glyph0-27" x="263.371094" y="129.214844"/>
</g>
<path style="fill:none;stroke-width:0.15;stroke-linecap:butt;stroke-linejoin:miter;stroke:rgb(0%,0%,0%);stroke-opacity:1;stroke-miterlimit:10;" d="M 18.142029 3.810742 L 19.101599 3.810742 " transform="matrix(20,0,0,20,-31.457771,41)"/>
<path style="fill-rule:evenodd;fill:rgb(0%,0%,0%);fill-opacity:1;stroke-width:0.15;stroke-linecap:butt;stroke-linejoin:miter;stroke:rgb(0%,0%,0%);stroke-opacity:1;stroke-miterlimit:10;" d="M 19.476599 3.810742 L 18.976599 4.060742 L 19.101599 3.810742 L 18.976599 3.560742 Z M 19.476599 3.810742 " transform="matrix(20,0,0,20,-31.457771,41)"/>
<path style="fill:none;stroke-width:0.15;stroke-linecap:butt;stroke-linejoin:miter;stroke:rgb(0%,0%,0%);stroke-opacity:1;stroke-miterlimit:10;" d="M 8.784217 3.810742 L 9.668592 3.810742 " transform="matrix(20,0,0,20,-31.457771,41)"/>
<path style="fill-rule:evenodd;fill:rgb(0%,0%,0%);fill-opacity:1;stroke-width:0.15;stroke-linecap:butt;stroke-linejoin:miter;stroke:rgb(0%,0%,0%);stroke-opacity:1;stroke-miterlimit:10;" d="M 10.043592 3.810742 L 9.543592 4.060742 L 9.668592 3.810742 L 9.543592 3.560742 Z M 10.043592 3.810742 " transform="matrix(20,0,0,20,-31.457771,41)"/>
<path style="fill-rule:evenodd;fill:rgb(100%,100%,100%);fill-opacity:1;stroke-width:0.15;stroke-linecap:butt;stroke-linejoin:miter;stroke:rgb(0%,0%,0%);stroke-opacity:1;stroke-miterlimit:10;" d="M 20.025037 15.946289 L 25.757459 15.946289 L 25.757459 17.896289 L 20.025037 17.896289 Z M 20.025037 15.946289 " transform="matrix(20,0,0,20,-31.457771,41)"/>
<g style="fill:rgb(0%,0%,0%);fill-opacity:1;">
  <use xlink:href="#glyph0-13" x="379.671875" y="383.324219"/>
  <use xlink:href="#glyph0-10" x="387.933594" y="383.324219"/>
  <use xlink:href="#glyph0-14" x="396.195313" y="383.324219"/>
  <use xlink:href="#glyph0-4" x="402.699219" y="383.324219"/>
  <use xlink:href="#glyph0-11" x="406.3125" y="383.324219"/>
  <use xlink:href="#glyph0-17" x="414.554688" y="383.324219"/>
  <use xlink:href="#glyph0-12" x="419.652344" y="383.324219"/>
  <use xlink:href="#glyph0-16" x="427.660156" y="383.324219"/>
  <use xlink:href="#glyph0-10" x="433.011719" y="383.324219"/>
  <use xlink:href="#glyph0-16" x="441.273438" y="383.324219"/>
  <use xlink:href="#glyph0-12" x="446.625" y="383.324219"/>
  <use xlink:href="#glyph0-17" x="454.632813" y="383.324219"/>
  <use xlink:href="#glyph0-12" x="459.730469" y="383.324219"/>
  <use xlink:href="#glyph0-16" x="467.738281" y="383.324219"/>
</g>
<path style="fill-rule:evenodd;fill:rgb(100%,100%,100%);fill-opacity:1;stroke-width:0.15;stroke-linecap:butt;stroke-linejoin:miter;stroke:rgb(0%,0%,0%);stroke-opacity:1;stroke-miterlimit:10;" d="M 21.304529 19.9125 L 25.187928 19.9125 L 24.478162 21.8625 L 20.594764 21.8625 Z M 21.304529 19.9125 " transform="matrix(20,0,0,20,-31.457771,41)"/>
<g style="fill:rgb(0%,0%,0%);fill-opacity:1;">
  <use xlink:href="#glyph0-13" x="404.867188" y="462.652344"/>
  <use xlink:href="#glyph0-10" x="413.128906" y="462.652344"/>
  <use xlink:href="#glyph0-14" x="421.390625" y="462.652344"/>
  <use xlink:href="#glyph0-5" x="427.894531" y="462.652344"/>
  <use xlink:href="#glyph0-28" x="435.042969" y="462.652344"/>
  <use xlink:href="#glyph0-29" x="439.613281" y="462.652344"/>
</g>
<path style="fill:none;stroke-width:0.15;stroke-linecap:butt;stroke-linejoin:miter;stroke:rgb(0%,0%,0%);stroke-opacity:1;stroke-miterlimit:10;" d="M 22.891443 19.8375 L 22.891443 18.514063 " transform="matrix(20,0,0,20,-31.457771,41)"/>
<path style="fill-rule:evenodd;fill:rgb(0%,0%,0%);fill-opacity:1;stroke-width:0.15;stroke-linecap:butt;stroke-linejoin:miter;stroke:rgb(0%,0%,0%);stroke-opacity:1;stroke-miterlimit:10;" d="M 22.891443 18.139063 L 23.141443 18.639063 L 22.891443 18.514063 L 22.641443 18.639063 Z M 22.891443 18.139063 " transform="matrix(20,0,0,20,-31.457771,41)"/>
<path style="fill-rule:evenodd;fill:rgb(100%,100%,100%);fill-opacity:1;stroke-width:0.15;stroke-linecap:butt;stroke-linejoin:miter;stroke:rgb(0%,0%,0%);stroke-opacity:1;stroke-miterlimit:10;" d="M 31.300037 -1.975 L 56.450037 -1.975 L 56.450037 31.800781 L 31.300037 31.800781 Z M 31.300037 -1.975 " transform="matrix(20,0,0,20,-31.457771,41)"/>
<g style="fill:rgb(0%,0%,0%);fill-opacity:1;">
  <use xlink:href="#glyph1-0" x="762.21875" y="56.90625"/>
  <use xlink:href="#glyph1-1" x="777.003906" y="56.90625"/>
  <use xlink:href="#glyph1-2" x="788.664062" y="56.90625"/>
  <use xlink:href="#glyph1-3" x="805.128906" y="56.90625"/>
  <use xlink:href="#glyph1-4" x="826.125" y="56.90625"/>
  <use xlink:href="#glyph1-5" x="842.394531" y="56.90625"/>
  <use xlink:href="#glyph1-6" x="868.234375" y="56.90625"/>
  <use xlink:href="#glyph1-7" x="894.894531" y="56.90625"/>
  <use xlink:href="#glyph1-8" x="906.554688" y="56.90625"/>
</g>
<path style="fill-rule:evenodd;fill:rgb(100%,100%,100%);fill-opacity:1;stroke-width:0.15;stroke-linecap:butt;stroke-linejoin:miter;stroke:rgb(0%,0%,0%);stroke-opacity:1;stroke-miterlimit:10;" d="M 37.051209 2.085742 L 50.69867 2.085742 L 53.428162 3.110742 L 50.69867 4.135742 L 37.051209 4.135742 L 34.321717 3.110742 L 37.051209 2.085742 " transform="matrix(20,0,0,20,-31.457771,41)"/>
<g style="fill:rgb(0%,0%,0%);fill-opacity:1;">
  <use xlink:href="#glyph0-30" x="710.710938" y="107.214844"/>
  <use xlink:href="#glyph0-10" x="721.609375" y="107.214844"/>
  <use xlink:href="#glyph0-16" x="729.871094" y="107.214844"/>
  <use xlink:href="#glyph0-12" x="735.222656" y="107.214844"/>
  <use xlink:href="#glyph0-28" x="743.230469" y="107.214844"/>
  <use xlink:href="#glyph0-4" x="747.800781" y="107.214844"/>
  <use xlink:href="#glyph0-31" x="751.414062" y="107.214844"/>
  <use xlink:href="#glyph0-32" x="759.109375" y="107.214844"/>
  <use xlink:href="#glyph0-33" x="770.007812" y="107.214844"/>
  <use xlink:href="#glyph0-30" x="774.148438" y="107.214844"/>
  <use xlink:href="#glyph0-13" x="785.046875" y="107.214844"/>
  <use xlink:href="#glyph0-10" x="793.308594" y="107.214844"/>
  <use xlink:href="#glyph0-11" x="801.570312" y="107.214844"/>
  <use xlink:href="#glyph0-6" x="809.8125" y="107.214844"/>
  <use xlink:href="#glyph0-34" x="817.78125" y="107.214844"/>
  <use xlink:href="#glyph0-12" x="830.4375" y="107.214844"/>
  <use xlink:href="#glyph0-32" x="838.445312" y="107.214844"/>
  <use xlink:href="#glyph0-33" x="849.34375" y="107.214844"/>
  <use xlink:href="#glyph0-5" x="853.484375" y="107.214844"/>
  <use xlink:href="#glyph0-15" x="860.632812" y="107.214844"/>
  <use xlink:href="#glyph0-34" x="868.582031" y="107.214844"/>
  <use xlink:href="#glyph0-34" x="881.238281" y="107.214844"/>
  <use xlink:href="#glyph0-6" x="893.894531" y="107.214844"/>
  <use xlink:href="#glyph0-11" x="901.863281" y="107.214844"/>
  <use xlink:href="#glyph0-35" x="910.105469" y="107.214844"/>
  <use xlink:href="#glyph0-14" x="918.367188" y="107.214844"/>
  <use xlink:href="#glyph0-16" x="924.871094" y="107.214844"/>
  <use xlink:href="#glyph0-12" x="930.222656" y="107.214844"/>
  <use xlink:href="#glyph0-36" x="938.230469" y="107.214844"/>
  <use xlink:href="#glyph0-37" x="946.492188" y="107.214844"/>
  <use xlink:href="#glyph0-12" x="954.734375" y="107.214844"/>
  <use xlink:href="#glyph0-3" x="962.742188" y="107.214844"/>
  <use xlink:href="#glyph0-17" x="969.519531" y="107.214844"/>
  <use xlink:href="#glyph0-3" x="974.617188" y="107.214844"/>
</g>
<path style="fill-rule:evenodd;fill:rgb(100%,100%,100%);fill-opacity:1;stroke-width:0.15;stroke-linecap:butt;stroke-linejoin:miter;stroke:rgb(0%,0%,0%);stroke-opacity:1;stroke-miterlimit:10;" d="M 37.051209 5.357031 L 50.69867 5.357031 L 53.428162 6.382031 L 50.69867 7.407031 L 37.051209 7.407031 L 34.321717 6.382031 L 37.051209 5.357031 " transform="matrix(20,0,0,20,-31.457771,41)"/>
<g style="fill:rgb(0%,0%,0%);fill-opacity:1;">
  <use xlink:href="#glyph0-30" x="737.527344" y="172.640625"/>
  <use xlink:href="#glyph0-10" x="748.425781" y="172.640625"/>
  <use xlink:href="#glyph0-16" x="756.6875" y="172.640625"/>
  <use xlink:href="#glyph0-12" x="762.039062" y="172.640625"/>
  <use xlink:href="#glyph0-28" x="770.046875" y="172.640625"/>
  <use xlink:href="#glyph0-4" x="774.617188" y="172.640625"/>
  <use xlink:href="#glyph0-31" x="778.230469" y="172.640625"/>
  <use xlink:href="#glyph0-32" x="785.925781" y="172.640625"/>
  <use xlink:href="#glyph0-33" x="796.824219" y="172.640625"/>
  <use xlink:href="#glyph0-30" x="800.964844" y="172.640625"/>
  <use xlink:href="#glyph0-13" x="811.863281" y="172.640625"/>
  <use xlink:href="#glyph0-10" x="820.125" y="172.640625"/>
  <use xlink:href="#glyph0-11" x="828.386719" y="172.640625"/>
  <use xlink:href="#glyph0-6" x="836.628906" y="172.640625"/>
  <use xlink:href="#glyph0-34" x="844.597656" y="172.640625"/>
  <use xlink:href="#glyph0-12" x="857.253906" y="172.640625"/>
  <use xlink:href="#glyph0-32" x="865.261719" y="172.640625"/>
  <use xlink:href="#glyph0-33" x="876.160156" y="172.640625"/>
  <use xlink:href="#glyph0-6" x="880.300781" y="172.640625"/>
  <use xlink:href="#glyph0-5" x="888.269531" y="172.640625"/>
  <use xlink:href="#glyph0-17" x="895.417969" y="172.640625"/>
  <use xlink:href="#glyph0-4" x="900.515625" y="172.640625"/>
  <use xlink:href="#glyph0-38" x="904.128906" y="172.640625"/>
  <use xlink:href="#glyph0-4" x="911.824219" y="172.640625"/>
  <use xlink:href="#glyph0-17" x="915.4375" y="172.640625"/>
  <use xlink:href="#glyph0-2" x="920.535156" y="172.640625"/>
  <use xlink:href="#glyph0-14" x="928.230469" y="172.640625"/>
  <use xlink:href="#glyph0-7" x="934.734375" y="172.640625"/>
  <use xlink:href="#glyph0-15" x="938.347656" y="172.640625"/>
  <use xlink:href="#glyph0-29" x="946.296875" y="172.640625"/>
</g>
<path style="fill-rule:evenodd;fill:rgb(100%,100%,100%);fill-opacity:1;stroke-width:0.15;stroke-linecap:butt;stroke-linejoin:miter;stroke:rgb(0%,0%,0%);stroke-opacity:1;stroke-miterlimit:10;" d="M 37.051209 8.628125 L 50.69867 8.628125 L 53.428162 9.653125 L 50.69867 10.678125 L 37.051209 10.678125 L 34.321717 9.653125 L 37.051209 8.628125 " transform="matrix(20,0,0,20,-31.457771,41)"/>
<g style="fill:rgb(0%,0%,0%);fill-opacity:1;">
  <use xlink:href="#glyph0-30" x="755.261719" y="238.0625"/>
  <use xlink:href="#glyph0-10" x="766.160156" y="238.0625"/>
  <use xlink:href="#glyph0-16" x="774.421875" y="238.0625"/>
  <use xlink:href="#glyph0-12" x="779.773438" y="238.0625"/>
  <use xlink:href="#glyph0-28" x="787.78125" y="238.0625"/>
  <use xlink:href="#glyph0-4" x="792.351562" y="238.0625"/>
  <use xlink:href="#glyph0-31" x="795.964844" y="238.0625"/>
  <use xlink:href="#glyph0-32" x="803.660156" y="238.0625"/>
  <use xlink:href="#glyph0-33" x="814.558594" y="238.0625"/>
  <use xlink:href="#glyph0-30" x="818.699219" y="238.0625"/>
  <use xlink:href="#glyph0-13" x="829.597656" y="238.0625"/>
  <use xlink:href="#glyph0-10" x="837.859375" y="238.0625"/>
  <use xlink:href="#glyph0-11" x="846.121094" y="238.0625"/>
  <use xlink:href="#glyph0-6" x="854.363281" y="238.0625"/>
  <use xlink:href="#glyph0-34" x="862.332031" y="238.0625"/>
  <use xlink:href="#glyph0-12" x="874.988281" y="238.0625"/>
  <use xlink:href="#glyph0-32" x="882.996094" y="238.0625"/>
  <use xlink:href="#glyph0-33" x="893.894531" y="238.0625"/>
  <use xlink:href="#glyph0-12" x="898.035156" y="238.0625"/>
  <use xlink:href="#glyph0-16" x="906.042969" y="238.0625"/>
  <use xlink:href="#glyph0-16" x="911.394531" y="238.0625"/>
  <use xlink:href="#glyph0-15" x="916.746094" y="238.0625"/>
  <use xlink:href="#glyph0-16" x="924.695312" y="238.0625"/>
  <use xlink:href="#glyph0-3" x="930.046875" y="238.0625"/>
</g>
<path style="fill-rule:evenodd;fill:rgb(100%,100%,100%);fill-opacity:1;stroke-width:0.15;stroke-linecap:butt;stroke-linejoin:miter;stroke:rgb(0%,0%,0%);stroke-opacity:1;stroke-miterlimit:10;" d="M 37.051209 11.899414 L 50.69867 11.899414 L 53.428162 12.924414 L 50.69867 13.949414 L 37.051209 13.949414 L 34.321717 12.924414 L 37.051209 11.899414 " transform="matrix(20,0,0,20,-31.457771,41)"/>
<g style="fill:rgb(0%,0%,0%);fill-opacity:1;">
  <use xlink:href="#glyph0-30" x="744.792969" y="303.488281"/>
  <use xlink:href="#glyph0-10" x="755.691406" y="303.488281"/>
  <use xlink:href="#glyph0-16" x="763.953125" y="303.488281"/>
  <use xlink:href="#glyph0-12" x="769.304688" y="303.488281"/>
  <use xlink:href="#glyph0-28" x="777.3125" y="303.488281"/>
  <use xlink:href="#glyph0-4" x="781.882812" y="303.488281"/>
  <use xlink:href="#glyph0-31" x="785.496094" y="303.488281"/>
  <use xlink:href="#glyph0-32" x="793.191406" y="303.488281"/>
  <use xlink:href="#glyph0-33" x="804.089844" y="303.488281"/>
  <use xlink:href="#glyph0-30" x="808.230469" y="303.488281"/>
  <use xlink:href="#glyph0-13" x="819.128906" y="303.488281"/>
  <use xlink:href="#glyph0-10" x="827.390625" y="303.488281"/>
  <use xlink:href="#glyph0-11" x="835.652344" y="303.488281"/>
  <use xlink:href="#glyph0-6" x="843.894531" y="303.488281"/>
  <use xlink:href="#glyph0-34" x="851.863281" y="303.488281"/>
  <use xlink:href="#glyph0-12" x="864.519531" y="303.488281"/>
  <use xlink:href="#glyph0-32" x="872.527344" y="303.488281"/>
  <use xlink:href="#glyph0-33" x="883.425781" y="303.488281"/>
  <use xlink:href="#glyph0-16" x="887.566406" y="303.488281"/>
  <use xlink:href="#glyph0-6" x="892.917969" y="303.488281"/>
  <use xlink:href="#glyph0-18" x="900.886719" y="303.488281"/>
  <use xlink:href="#glyph0-14" x="911.511719" y="303.488281"/>
  <use xlink:href="#glyph0-35" x="918.015625" y="303.488281"/>
  <use xlink:href="#glyph0-6" x="926.277344" y="303.488281"/>
  <use xlink:href="#glyph0-17" x="934.246094" y="303.488281"/>
  <use xlink:href="#glyph0-6" x="939.34375" y="303.488281"/>
</g>
<path style="fill-rule:evenodd;fill:rgb(100%,100%,100%);fill-opacity:1;stroke-width:0.15;stroke-linecap:butt;stroke-linejoin:miter;stroke:rgb(0%,0%,0%);stroke-opacity:1;stroke-miterlimit:10;" d="M 37.051209 19.157422 L 50.69867 19.157422 L 53.428162 20.182422 L 50.69867 21.207422 L 37.051209 21.207422 L 34.321717 20.182422 L 37.051209 19.157422 " transform="matrix(20,0,0,20,-31.457771,41)"/>
<g style="fill:rgb(0%,0%,0%);fill-opacity:1;">
  <use xlink:href="#glyph0-30" x="734.441406" y="448.648438"/>
  <use xlink:href="#glyph0-10" x="745.339844" y="448.648438"/>
  <use xlink:href="#glyph0-16" x="753.601562" y="448.648438"/>
  <use xlink:href="#glyph0-12" x="758.953125" y="448.648438"/>
  <use xlink:href="#glyph0-28" x="766.960938" y="448.648438"/>
  <use xlink:href="#glyph0-4" x="771.53125" y="448.648438"/>
  <use xlink:href="#glyph0-31" x="775.144531" y="448.648438"/>
  <use xlink:href="#glyph0-32" x="782.839844" y="448.648438"/>
  <use xlink:href="#glyph0-33" x="793.738281" y="448.648438"/>
  <use xlink:href="#glyph0-30" x="797.878906" y="448.648438"/>
  <use xlink:href="#glyph0-13" x="808.777344" y="448.648438"/>
  <use xlink:href="#glyph0-10" x="817.039062" y="448.648438"/>
  <use xlink:href="#glyph0-11" x="825.300781" y="448.648438"/>
  <use xlink:href="#glyph0-6" x="833.542969" y="448.648438"/>
  <use xlink:href="#glyph0-34" x="841.511719" y="448.648438"/>
  <use xlink:href="#glyph0-12" x="854.167969" y="448.648438"/>
  <use xlink:href="#glyph0-32" x="862.175781" y="448.648438"/>
  <use xlink:href="#glyph0-33" x="873.074219" y="448.648438"/>
  <use xlink:href="#glyph0-10" x="877.214844" y="448.648438"/>
  <use xlink:href="#glyph0-6" x="885.476562" y="448.648438"/>
  <use xlink:href="#glyph0-16" x="893.445312" y="448.648438"/>
  <use xlink:href="#glyph0-3" x="898.796875" y="448.648438"/>
  <use xlink:href="#glyph0-12" x="905.574219" y="448.648438"/>
  <use xlink:href="#glyph0-35" x="913.582031" y="448.648438"/>
  <use xlink:href="#glyph0-14" x="921.84375" y="448.648438"/>
  <use xlink:href="#glyph0-35" x="928.347656" y="448.648438"/>
  <use xlink:href="#glyph0-6" x="936.609375" y="448.648438"/>
  <use xlink:href="#glyph0-17" x="944.578125" y="448.648438"/>
  <use xlink:href="#glyph0-6" x="949.675781" y="448.648438"/>
</g>
<path style="fill-rule:evenodd;fill:rgb(100%,100%,100%);fill-opacity:1;stroke-width:0.15;stroke-linecap:butt;stroke-linejoin:miter;stroke:rgb(0%,0%,0%);stroke-opacity:1;stroke-miterlimit:10;" d="M 36.922498 16.225781 L 50.827576 16.225781 C 52.747303 16.225781 54.303748 16.558203 54.303748 16.968164 C 54.303748 17.37832 52.747303 17.710742 50.827576 17.710742 L 36.922498 17.710742 C 35.002576 17.710742 33.446326 17.37832 33.446326 16.968164 C 33.446326 16.558203 35.002576 16.225781 36.922498 16.225781 " transform="matrix(20,0,0,20,-31.457771,41)"/>
<g style="fill:rgb(0%,0%,0%);fill-opacity:1;">
  <use xlink:href="#glyph0-30" x="708.269531" y="384.363281"/>
  <use xlink:href="#glyph0-10" x="719.167969" y="384.363281"/>
  <use xlink:href="#glyph0-16" x="727.429688" y="384.363281"/>
  <use xlink:href="#glyph0-12" x="732.78125" y="384.363281"/>
  <use xlink:href="#glyph0-28" x="740.789062" y="384.363281"/>
  <use xlink:href="#glyph0-4" x="745.359375" y="384.363281"/>
  <use xlink:href="#glyph0-31" x="748.972656" y="384.363281"/>
  <use xlink:href="#glyph0-32" x="756.667969" y="384.363281"/>
  <use xlink:href="#glyph0-33" x="767.566406" y="384.363281"/>
  <use xlink:href="#glyph0-30" x="771.707031" y="384.363281"/>
  <use xlink:href="#glyph0-13" x="782.605469" y="384.363281"/>
  <use xlink:href="#glyph0-10" x="790.867188" y="384.363281"/>
  <use xlink:href="#glyph0-11" x="799.128906" y="384.363281"/>
  <use xlink:href="#glyph0-6" x="807.371094" y="384.363281"/>
  <use xlink:href="#glyph0-34" x="815.339844" y="384.363281"/>
  <use xlink:href="#glyph0-12" x="827.996094" y="384.363281"/>
  <use xlink:href="#glyph0-32" x="836.003906" y="384.363281"/>
  <use xlink:href="#glyph0-33" x="846.902344" y="384.363281"/>
  <use xlink:href="#glyph0-10" x="851.042969" y="384.363281"/>
  <use xlink:href="#glyph0-6" x="859.304688" y="384.363281"/>
  <use xlink:href="#glyph0-16" x="867.273438" y="384.363281"/>
  <use xlink:href="#glyph0-3" x="872.625" y="384.363281"/>
  <use xlink:href="#glyph0-12" x="879.402344" y="384.363281"/>
  <use xlink:href="#glyph0-35" x="887.410156" y="384.363281"/>
  <use xlink:href="#glyph0-14" x="895.671875" y="384.363281"/>
  <use xlink:href="#glyph0-35" x="902.175781" y="384.363281"/>
  <use xlink:href="#glyph0-6" x="910.4375" y="384.363281"/>
  <use xlink:href="#glyph0-17" x="918.40625" y="384.363281"/>
  <use xlink:href="#glyph0-6" x="923.503906" y="384.363281"/>
  <use xlink:href="#glyph0-14" x="931.472656" y="384.363281"/>
  <use xlink:href="#glyph0-1" x="937.976562" y="384.363281"/>
  <use xlink:href="#glyph0-12" x="946.21875" y="384.363281"/>
  <use xlink:href="#glyph0-6" x="954.226562" y="384.363281"/>
  <use xlink:href="#glyph0-35" x="962.195312" y="384.363281"/>
  <use xlink:href="#glyph0-12" x="970.457031" y="384.363281"/>
  <use xlink:href="#glyph0-16" x="978.464844" y="384.363281"/>
</g>
<path style="fill-rule:evenodd;fill:rgb(100%,100%,100%);fill-opacity:1;stroke-width:0.15;stroke-linecap:butt;stroke-linejoin:miter;stroke:rgb(0%,0%,0%);stroke-opacity:1;stroke-miterlimit:10;" d="M 50.135193 24.569531 L 34.985193 24.569531 C 37.257654 25.305078 38.015271 25.672656 38.015271 26.408008 C 38.015271 27.143555 37.257654 27.511133 34.985193 28.246484 L 50.135193 28.246484 C 52.407654 27.511133 53.165271 27.143555 53.165271 26.408008 C 53.165271 25.672656 52.407654 25.305078 50.135193 24.569531 " transform="matrix(20,0,0,20,-31.457771,41)"/>
<g style="fill:rgb(0%,0%,0%);fill-opacity:1;">
  <use xlink:href="#glyph0-30" x="730.398438" y="573.160156"/>
  <use xlink:href="#glyph0-10" x="741.296875" y="573.160156"/>
  <use xlink:href="#glyph0-16" x="749.558594" y="573.160156"/>
  <use xlink:href="#glyph0-12" x="754.910156" y="573.160156"/>
  <use xlink:href="#glyph0-28" x="762.917969" y="573.160156"/>
  <use xlink:href="#glyph0-4" x="767.488281" y="573.160156"/>
  <use xlink:href="#glyph0-31" x="771.101562" y="573.160156"/>
  <use xlink:href="#glyph0-32" x="778.796875" y="573.160156"/>
  <use xlink:href="#glyph0-33" x="789.695312" y="573.160156"/>
  <use xlink:href="#glyph0-30" x="793.835938" y="573.160156"/>
  <use xlink:href="#glyph0-13" x="804.734375" y="573.160156"/>
  <use xlink:href="#glyph0-10" x="812.996094" y="573.160156"/>
  <use xlink:href="#glyph0-11" x="821.257812" y="573.160156"/>
  <use xlink:href="#glyph0-6" x="829.5" y="573.160156"/>
  <use xlink:href="#glyph0-34" x="837.46875" y="573.160156"/>
  <use xlink:href="#glyph0-12" x="850.125" y="573.160156"/>
  <use xlink:href="#glyph0-32" x="858.132812" y="573.160156"/>
  <use xlink:href="#glyph0-33" x="869.03125" y="573.160156"/>
  <use xlink:href="#glyph0-30" x="873.171875" y="573.160156"/>
  <use xlink:href="#glyph0-3" x="884.070312" y="573.160156"/>
  <use xlink:href="#glyph0-37" x="890.847656" y="573.160156"/>
  <use xlink:href="#glyph0-13" x="899.089844" y="573.160156"/>
  <use xlink:href="#glyph0-5" x="907.351562" y="573.160156"/>
  <use xlink:href="#glyph0-1" x="914.5" y="573.160156"/>
  <use xlink:href="#glyph0-6" x="922.742188" y="573.160156"/>
  <use xlink:href="#glyph0-11" x="930.710938" y="573.160156"/>
  <use xlink:href="#glyph0-11" x="938.953125" y="573.160156"/>
  <use xlink:href="#glyph0-12" x="947.195312" y="573.160156"/>
  <use xlink:href="#glyph0-7" x="955.203125" y="573.160156"/>
  <use xlink:href="#glyph0-32" x="958.816406" y="573.160156"/>
</g>
<path style="fill:none;stroke-width:0.15;stroke-linecap:butt;stroke-linejoin:miter;stroke:rgb(0%,0%,0%);stroke-opacity:1;stroke-miterlimit:10;" d="M 18.893201 3.810742 L 19.225623 3.810742 " transform="matrix(20,0,0,20,-31.457771,41)"/>
<path style="fill-rule:evenodd;fill:rgb(0%,0%,0%);fill-opacity:1;stroke-width:0.15;stroke-linecap:butt;stroke-linejoin:miter;stroke:rgb(0%,0%,0%);stroke-opacity:1;stroke-miterlimit:10;" d="M 19.600623 3.810742 L 19.100623 4.060742 L 19.225623 3.810742 L 19.100623 3.560742 Z M 19.600623 3.810742 " transform="matrix(20,0,0,20,-31.457771,41)"/>
<path style="fill:none;stroke-width:0.15;stroke-linecap:butt;stroke-linejoin:miter;stroke:rgb(0%,0%,0%);stroke-opacity:1;stroke-miterlimit:10;" d="M 26.068592 3.810742 L 33.803553 6.220508 " transform="matrix(20,0,0,20,-31.457771,41)"/>
<path style="fill-rule:evenodd;fill:rgb(0%,0%,0%);fill-opacity:1;stroke-width:0.15;stroke-linecap:butt;stroke-linejoin:miter;stroke:rgb(0%,0%,0%);stroke-opacity:1;stroke-miterlimit:10;" d="M 34.16156 6.332031 L 33.609998 6.42207 L 33.803553 6.220508 L 33.758631 5.944727 Z M 34.16156 6.332031 " transform="matrix(20,0,0,20,-31.457771,41)"/>
<path style="fill:none;stroke-width:0.15;stroke-linecap:butt;stroke-linejoin:miter;stroke:rgb(0%,0%,0%);stroke-opacity:1;stroke-miterlimit:10;" d="M 26.068592 3.810742 L 33.878748 9.339648 " transform="matrix(20,0,0,20,-31.457771,41)"/>
<path style="fill-rule:evenodd;fill:rgb(0%,0%,0%);fill-opacity:1;stroke-width:0.15;stroke-linecap:butt;stroke-linejoin:miter;stroke:rgb(0%,0%,0%);stroke-opacity:1;stroke-miterlimit:10;" d="M 34.184803 9.55625 L 33.632264 9.471484 L 33.878748 9.339648 L 33.921131 9.063477 Z M 34.184803 9.55625 " transform="matrix(20,0,0,20,-31.457771,41)"/>
<path style="fill:none;stroke-width:0.15;stroke-linecap:butt;stroke-linejoin:miter;stroke:rgb(0%,0%,0%);stroke-opacity:1;stroke-miterlimit:10;" d="M 26.068592 3.810742 L 33.957459 12.522266 " transform="matrix(20,0,0,20,-31.457771,41)"/>
<path style="fill-rule:evenodd;fill:rgb(0%,0%,0%);fill-opacity:1;stroke-width:0.15;stroke-linecap:butt;stroke-linejoin:miter;stroke:rgb(0%,0%,0%);stroke-opacity:1;stroke-miterlimit:10;" d="M 34.209217 12.800195 L 33.688318 12.597266 L 33.957459 12.522266 L 34.058826 12.261719 Z M 34.209217 12.800195 " transform="matrix(20,0,0,20,-31.457771,41)"/>
<path style="fill:none;stroke-width:0.15;stroke-linecap:butt;stroke-linejoin:miter;stroke:rgb(0%,0%,0%);stroke-opacity:1;stroke-miterlimit:10;" d="M 34.321717 3.110742 L 26.611365 3.104883 " transform="matrix(20,0,0,20,-31.457771,41)"/>
<path style="fill-rule:evenodd;fill:rgb(0%,0%,0%);fill-opacity:1;stroke-width:0.15;stroke-linecap:butt;stroke-linejoin:miter;stroke:rgb(0%,0%,0%);stroke-opacity:1;stroke-miterlimit:10;" d="M 26.236365 3.104688 L 26.73656 2.855078 L 26.611365 3.104883 L 26.73617 3.355078 Z M 26.236365 3.104688 " transform="matrix(20,0,0,20,-31.457771,41)"/>
<path style="fill:none;stroke-width:0.15;stroke-linecap:butt;stroke-linejoin:miter;stroke:rgb(0%,0%,0%);stroke-opacity:1;stroke-miterlimit:10;" d="M 34.321717 12.924414 L 26.259803 16.22793 " transform="matrix(20,0,0,20,-31.457771,41)"/>
<path style="fill-rule:evenodd;fill:rgb(0%,0%,0%);fill-opacity:1;stroke-width:0.15;stroke-linecap:butt;stroke-linejoin:miter;stroke:rgb(0%,0%,0%);stroke-opacity:1;stroke-miterlimit:10;" d="M 25.912732 16.370313 L 26.280701 15.949219 L 26.259803 16.22793 L 26.470349 16.411914 Z M 25.912732 16.370313 " transform="matrix(20,0,0,20,-31.457771,41)"/>
<path style="fill:none;stroke-width:0.15;stroke-linecap:butt;stroke-linejoin:miter;stroke:rgb(0%,0%,0%);stroke-opacity:1;stroke-miterlimit:10;" d="M 25.757654 16.921289 L 32.903553 16.964844 " transform="matrix(20,0,0,20,-31.457771,41)"/>
<path style="fill-rule:evenodd;fill:rgb(0%,0%,0%);fill-opacity:1;stroke-width:0.15;stroke-linecap:butt;stroke-linejoin:miter;stroke:rgb(0%,0%,0%);stroke-opacity:1;stroke-miterlimit:10;" d="M 33.278553 16.967188 L 32.77699 17.214063 L 32.903553 16.964844 L 32.780115 16.714063 Z M 33.278553 16.967188 " transform="matrix(20,0,0,20,-31.457771,41)"/>
<path style="fill:none;stroke-width:0.15;stroke-linecap:butt;stroke-linejoin:miter;stroke:rgb(0%,0%,0%);stroke-opacity:1;stroke-miterlimit:10;" d="M 25.757654 16.921289 L 33.81449 19.989258 " transform="matrix(20,0,0,20,-31.457771,41)"/>
<path style="fill-rule:evenodd;fill:rgb(0%,0%,0%);fill-opacity:1;stroke-width:0.15;stroke-linecap:butt;stroke-linejoin:miter;stroke:rgb(0%,0%,0%);stroke-opacity:1;stroke-miterlimit:10;" d="M 34.165076 20.122852 L 33.608826 20.178516 L 33.81449 19.989258 L 33.786756 19.711133 Z M 34.165076 20.122852 " transform="matrix(20,0,0,20,-31.457771,41)"/>
<path style="fill:none;stroke-width:0.15;stroke-linecap:butt;stroke-linejoin:miter;stroke:rgb(0%,0%,0%);stroke-opacity:1;stroke-miterlimit:10;" d="M 25.757654 16.921289 L 34.56742 24.223242 " transform="matrix(20,0,0,20,-31.457771,41)"/>
<path style="fill-rule:evenodd;fill:rgb(0%,0%,0%);fill-opacity:1;stroke-width:0.15;stroke-linecap:butt;stroke-linejoin:miter;stroke:rgb(0%,0%,0%);stroke-opacity:1;stroke-miterlimit:10;" d="M 34.856092 24.4625 L 34.31156 24.335938 L 34.56742 24.223242 L 34.630701 23.950977 Z M 34.856092 24.4625 " transform="matrix(20,0,0,20,-31.457771,41)"/>
<path style="fill-rule:evenodd;fill:rgb(100%,100%,100%);fill-opacity:1;stroke-width:0.15;stroke-linecap:butt;stroke-linejoin:miter;stroke:rgb(0%,0%,0%);stroke-opacity:1;stroke-miterlimit:10;" d="M 61.460974 9.54082 L 67.810974 9.54082 L 67.810974 12.36582 L 61.460974 12.36582 Z M 61.460974 9.54082 " transform="matrix(20,0,0,20,-31.457771,41)"/>
<g style="fill:rgb(0%,0%,0%);fill-opacity:1;">
  <use xlink:href="#glyph0-28" x="1233.410156" y="263.964844"/>
  <use xlink:href="#glyph0-16" x="1237.980469" y="263.964844"/>
  <use xlink:href="#glyph0-15" x="1243.332031" y="263.964844"/>
  <use xlink:href="#glyph0-11" x="1251.28125" y="263.964844"/>
  <use xlink:href="#glyph0-17" x="1259.523438" y="263.964844"/>
  <use xlink:href="#glyph0-12" x="1264.621094" y="263.964844"/>
  <use xlink:href="#glyph0-11" x="1272.628906" y="263.964844"/>
  <use xlink:href="#glyph0-35" x="1280.871094" y="263.964844"/>
</g>
<path style="fill:none;stroke-width:0.15;stroke-linecap:butt;stroke-linejoin:miter;stroke:rgb(0%,0%,0%);stroke-opacity:1;stroke-miterlimit:10;" d="M 61.460974 10.24707 L 53.834021 3.471289 " transform="matrix(20,0,0,20,-31.457771,41)"/>
<path style="fill-rule:evenodd;fill:rgb(0%,0%,0%);fill-opacity:1;stroke-width:0.15;stroke-linecap:butt;stroke-linejoin:miter;stroke:rgb(0%,0%,0%);stroke-opacity:1;stroke-miterlimit:10;" d="M 53.553553 3.22207 L 54.093396 3.367383 L 53.834021 3.471289 L 53.761365 3.741211 Z M 53.553553 3.22207 " transform="matrix(20,0,0,20,-31.457771,41)"/>
<path style="fill:none;stroke-width:0.15;stroke-linecap:butt;stroke-linejoin:miter;stroke:rgb(0%,0%,0%);stroke-opacity:1;stroke-miterlimit:10;" d="M 53.428162 6.382031 L 60.972107 10.011719 " transform="matrix(20,0,0,20,-31.457771,41)"/>
<path style="fill-rule:evenodd;fill:rgb(0%,0%,0%);fill-opacity:1;stroke-width:0.15;stroke-linecap:butt;stroke-linejoin:miter;stroke:rgb(0%,0%,0%);stroke-opacity:1;stroke-miterlimit:10;" d="M 61.309998 10.174414 L 60.751014 10.182813 L 60.972107 10.011719 L 60.96781 9.732227 Z M 61.309998 10.174414 " transform="matrix(20,0,0,20,-31.457771,41)"/>
<path style="fill:none;stroke-width:0.15;stroke-linecap:butt;stroke-linejoin:miter;stroke:rgb(0%,0%,0%);stroke-opacity:1;stroke-miterlimit:10;" d="M 53.428162 9.653125 L 60.925428 10.866602 " transform="matrix(20,0,0,20,-31.457771,41)"/>
<path style="fill-rule:evenodd;fill:rgb(0%,0%,0%);fill-opacity:1;stroke-width:0.15;stroke-linecap:butt;stroke-linejoin:miter;stroke:rgb(0%,0%,0%);stroke-opacity:1;stroke-miterlimit:10;" d="M 61.295545 10.926563 L 60.761951 11.093359 L 60.925428 10.866602 L 60.841834 10.599805 Z M 61.295545 10.926563 " transform="matrix(20,0,0,20,-31.457771,41)"/>
<path style="fill:none;stroke-width:0.15;stroke-linecap:butt;stroke-linejoin:miter;stroke:rgb(0%,0%,0%);stroke-opacity:1;stroke-miterlimit:10;" d="M 54.303748 16.968164 L 61.025232 11.982813 " transform="matrix(20,0,0,20,-31.457771,41)"/>
<path style="fill-rule:evenodd;fill:rgb(0%,0%,0%);fill-opacity:1;stroke-width:0.15;stroke-linecap:butt;stroke-linejoin:miter;stroke:rgb(0%,0%,0%);stroke-opacity:1;stroke-miterlimit:10;" d="M 61.326404 11.759375 L 61.07367 12.258203 L 61.025232 11.982813 L 60.775818 11.856445 Z M 61.326404 11.759375 " transform="matrix(20,0,0,20,-31.457771,41)"/>
<path style="fill:none;stroke-width:0.15;stroke-linecap:butt;stroke-linejoin:miter;stroke:rgb(0%,0%,0%);stroke-opacity:1;stroke-miterlimit:10;" d="M 53.428162 20.182422 L 61.072107 12.744336 " transform="matrix(20,0,0,20,-31.457771,41)"/>
<path style="fill-rule:evenodd;fill:rgb(0%,0%,0%);fill-opacity:1;stroke-width:0.15;stroke-linecap:butt;stroke-linejoin:miter;stroke:rgb(0%,0%,0%);stroke-opacity:1;stroke-miterlimit:10;" d="M 61.340857 12.482813 L 61.156873 13.010547 L 61.072107 12.744336 L 60.80824 12.652344 Z M 61.340857 12.482813 " transform="matrix(20,0,0,20,-31.457771,41)"/>
<path style="fill:none;stroke-width:0.15;stroke-linecap:butt;stroke-linejoin:miter;stroke:rgb(0%,0%,0%);stroke-opacity:1;stroke-miterlimit:10;" d="M 53.165271 26.408008 L 62.73617 12.80957 " transform="matrix(20,0,0,20,-31.457771,41)"/>
<path style="fill-rule:evenodd;fill:rgb(0%,0%,0%);fill-opacity:1;stroke-width:0.15;stroke-linecap:butt;stroke-linejoin:miter;stroke:rgb(0%,0%,0%);stroke-opacity:1;stroke-miterlimit:10;" d="M 62.95199 12.50293 L 62.868787 13.055664 L 62.73617 12.80957 L 62.459803 12.767969 Z M 62.95199 12.50293 " transform="matrix(20,0,0,20,-31.457771,41)"/>
<path style="fill-rule:evenodd;fill:rgb(100%,100%,100%);fill-opacity:1;stroke-width:0.15;stroke-linecap:butt;stroke-linejoin:miter;stroke:rgb(0%,0%,0%);stroke-opacity:1;stroke-miterlimit:10;" d="M 39.003943 33.158203 L 48.745935 33.158203 L 50.694373 34.183203 L 48.745935 35.208203 L 39.003943 35.208203 L 37.055506 34.183203 L 39.003943 33.158203 " transform="matrix(20,0,0,20,-31.457771,41)"/>
<g style="fill:rgb(0%,0%,0%);fill-opacity:1;">
  <use xlink:href="#glyph0-16" x="811.746094" y="728.664062"/>
  <use xlink:href="#glyph0-4" x="817.097656" y="728.664062"/>
  <use xlink:href="#glyph0-11" x="820.710938" y="728.664062"/>
  <use xlink:href="#glyph0-29" x="828.953125" y="728.664062"/>
  <use xlink:href="#glyph0-19" x="837.214844" y="728.664062"/>
  <use xlink:href="#glyph0-13" x="841.355469" y="728.664062"/>
  <use xlink:href="#glyph0-37" x="849.617188" y="728.664062"/>
  <use xlink:href="#glyph0-28" x="857.859375" y="728.664062"/>
  <use xlink:href="#glyph0-28" x="862.429688" y="728.664062"/>
  <use xlink:href="#glyph0-12" x="867" y="728.664062"/>
  <use xlink:href="#glyph0-16" x="875.007812" y="728.664062"/>
</g>
<path style="fill-rule:evenodd;fill:rgb(100%,100%,100%);fill-opacity:1;stroke-width:0.15;stroke-linecap:butt;stroke-linejoin:miter;stroke:rgb(0%,0%,0%);stroke-opacity:1;stroke-miterlimit:10;" d="M 39.200037 36.569727 L 48.549842 36.569727 C 49.840857 36.569727 50.887342 36.902148 50.887342 37.312109 C 50.887342 37.722266 49.840857 38.054492 48.549842 38.054492 L 39.200037 38.054492 C 37.909217 38.054492 36.862732 37.722266 36.862732 37.312109 C 36.862732 36.902148 37.909217 36.569727 39.200037 36.569727 " transform="matrix(20,0,0,20,-31.457771,41)"/>
<g style="fill:rgb(0%,0%,0%);fill-opacity:1;">
  <use xlink:href="#glyph0-3" x="827.371094" y="791.242188"/>
  <use xlink:href="#glyph0-17" x="834.148438" y="791.242188"/>
  <use xlink:href="#glyph0-16" x="839.246094" y="791.242188"/>
  <use xlink:href="#glyph0-4" x="844.597656" y="791.242188"/>
  <use xlink:href="#glyph0-11" x="848.210938" y="791.242188"/>
  <use xlink:href="#glyph0-29" x="856.453125" y="791.242188"/>
</g>
<path style="fill-rule:evenodd;fill:rgb(100%,100%,100%);fill-opacity:1;stroke-width:0.15;stroke-linecap:butt;stroke-linejoin:miter;stroke:rgb(0%,0%,0%);stroke-opacity:1;stroke-miterlimit:10;" d="M 48.751209 39.416016 L 37.439881 39.416016 C 39.13656 39.746094 39.702185 39.911133 39.702185 40.241211 C 39.702185 40.571289 39.13656 40.736328 37.439881 41.066406 L 48.751209 41.066406 C 50.447889 40.736328 51.013318 40.571289 51.013318 40.241211 C 51.013318 39.911133 50.447889 39.746094 48.751209 39.416016 " transform="matrix(20,0,0,20,-31.457771,41)"/>
<g style="fill:rgb(0%,0%,0%);fill-opacity:1;">
  <use xlink:href="#glyph0-10" x="829.050781" y="849.824219"/>
  <use xlink:href="#glyph0-37" x="837.3125" y="849.824219"/>
  <use xlink:href="#glyph0-13" x="845.554688" y="849.824219"/>
  <use xlink:href="#glyph0-3" x="853.816406" y="849.824219"/>
  <use xlink:href="#glyph0-37" x="860.59375" y="849.824219"/>
  <use xlink:href="#glyph0-13" x="868.835938" y="849.824219"/>
</g>
</g>
</svg>
