DSPID:
*04D1A000011E5BD000C00000011E4DC000C00000011E530000C00000011E563000C00000011E54C000C00000011E490000C00000011E545000C00000011E517000C000019002000FFEE000D80323A892DC0000D0000000000000000000430EF00000000000000000101

NEW DSPID:
*04D1A000011E5BD000C00000011E4DC000C00000011E530000C00000011E563000C00000011E54C000C00000011E490000C00000011E545000C00000011E517000C000019002000FFEE000D80323A892DC0000D0000000000000000000430EF00000000000000000101C6

TREAD:
*06T1A@300204B4D00003333002060CB000033330020720A00003333002086250000333300209B14000033330020AFA4000033330020C2EB000033330020D856000033330020EDEF000033330021009A00003333002113FA00003333002127A1000033330000547700003333000675910000333300101AC800003333002044FD0000333342

PMASTER:
*FFM1C05FFFFFFFF0000011C

